/* XPM */
static const char * RMpoints[] = {
"30 30 105 2",
"  	c None",
". 	c #007BD0",
"+ 	c #0084DA",
"@ 	c #0067BA",
"# 	c #004D93",
"$ 	c #0063B8",
"% 	c #005AA9",
"& 	c #003E77",
"* 	c #007ACF",
"= 	c #0092E1",
"- 	c #00A2F1",
"; 	c #0093E2",
"> 	c #004B90",
", 	c #007ED3",
"' 	c #0061B1",
") 	c #0070C5",
"! 	c #005099",
"~ 	c #005FB0",
"{ 	c #004A8D",
"] 	c #00488B",
"^ 	c #005BAB",
"/ 	c #0056A1",
"( 	c #003B72",
"_ 	c #0058A6",
": 	c #005AA8",
"< 	c #003F79",
"[ 	c #006BC0",
"} 	c #008FDF",
"| 	c #009FEF",
"1 	c #0054A1",
"2 	c #004F97",
"3 	c #0087DB",
"4 	c #0069BC",
"5 	c #008CDF",
"6 	c #0055A1",
"7 	c #0069C0",
"8 	c #00539F",
"9 	c #003A71",
"0 	c #005AAA",
"a 	c #0069BF",
"b 	c #00396F",
"c 	c #0067BD",
"d 	c #005DAD",
"e 	c #003E79",
"f 	c #0062B5",
"g 	c #004482",
"h 	c #005EB1",
"i 	c #0066BA",
"j 	c #006BC1",
"k 	c #007CD1",
"l 	c #0090E0",
"m 	c #00A2EF",
"n 	c #0056A3",
"o 	c #004F99",
"p 	c #0087DC",
"q 	c #006ABD",
"r 	c #008EE0",
"s 	c #00498C",
"t 	c #0056A4",
"u 	c #0070C7",
"v 	c #0058A5",
"w 	c #005BAC",
"x 	c #0071C7",
"y 	c #00539D",
"z 	c #003A6F",
"A 	c #004F98",
"B 	c #006CC3",
"C 	c #0064B6",
"D 	c #00407A",
"E 	c #0067BE",
"F 	c #006ABE",
"G 	c #004585",
"H 	c #0061B5",
"I 	c #006FC3",
"J 	c #004A8E",
"K 	c #00386E",
"L 	c #003566",
"M 	c #00396E",
"N 	c #003365",
"O 	c #00386D",
"P 	c #003769",
"Q 	c #00376B",
"R 	c #00386C",
"S 	c #0078CE",
"T 	c #008ADC",
"U 	c #0055A0",
"V 	c #008FE1",
"W 	c #0071C5",
"X 	c #0085D9",
"Y 	c #007FD4",
"Z 	c #005BAA",
"` 	c #003B74",
" .	c #0059A7",
"..	c #007DD3",
"+.	c #004483",
"@.	c #0077CF",
"#.	c #0075CB",
"$.	c #003C74",
"%.	c #003668",
"&.	c #003B73",
"*.	c #0074CA",
"=.	c #0061B4",
"-.	c #0093E4",
";.	c #0080D6",
">.	c #003F7B",
"                                                            ",
"                                .                           ",
"                          +     @                           ",
"                          # $ % &                           ",
"                                                            ",
"                                                            ",
"                                *           =               ",
"              -   ; >     ,     '           )               ",
"              ! ~ {       ] ^ / (       _ : <               ",
"                                                            ",
"                                                            ",
"        [                       *           }               ",
"  |     1           2     3     4           *           5 ] ",
"  6 7 8 9     0 a 2 b     2 c d e       $ f g       h i ]   ",
"                                                            ",
"                                                            ",
"        j                       k           l               ",
"  m     n           o     p     q           .           r s ",
"  t u v (     w x y z     A B C D       E F G       H I J   ",
"    K L         M N         O P           Q           R     ",
"                                                            ",
"                                S           T               ",
"                    U     V     W           X               ",
"              c Y Z `      ...I +.      @.#.>               ",
"                $.%.        ` M         &.9                 ",
"                                                            ",
"                                                            ",
"                                *.                          ",
"                          =.-.;.J                           ",
"                            >.$.                            "};
