# Object 3D file generated by CamiTK
# number of vertices : 1589
# number of faces : 3174
v 211.778 154.647 42.1356
v 214.244 153.125 42.2919
v 212.082 148.164 44.9886
v 209.454 153.885 42.2888
v 201.768 153.319 42.8373
v 203.92 153.955 42.2418
v 218.89 153.848 42.1819
v 214.96 153.87 42.136
v 197.112 157.355 42.6209
v 212.494 163.343 42.0635
v 218.061 159.382 42.0226
v 221.184 156.959 42.3303
v 219.454 163.189 42.3218
v 220.765 163.03 42.6247
v 224.573 157.979 43.7585
v 196.771 160.258 42.3512
v 192.792 157.803 44.4562
v 197.468 161.784 42.2653
v 208.437 164.883 42.2972
v 199.808 162.552 42.0871
v 222.324 163.047 43.2565
v 195.974 161.818 42.8088
v 209.291 164.122 42.1424
v 216.855 165.39 42.5957
v 214.774 164.864 42.3071
v 220.162 163.146 42.4705
v 213.094 165.611 42.5517
v 213.194 164.881 42.2973
v 213.887 165.607 42.5541
v 207.217 166.911 43.3926
v 197.996 167.82 44.8455
v 214.693 168.01 44.5234
v 217.43 166.735 43.432
v 204.371 145.617 45.5448
v 207.274 146.944 45.0223
v 207.269 144.022 47.2313
v 207.072 148.324 44.3203
v 210.179 145.96 46.3878
v 212.074 143.012 46.8564
v 217.979 144.967 45.7695
v 226.784 157.794 44.1641
v 227.512 160.921 44.2967
v 194.263 165.723 44.5655
v 228.138 162.404 44.5845
v 227.302 164.77 44.6426
v 225.734 166.305 44.6487
v 218.884 167.448 44.1585
v 223.101 167.699 44.8798
v 227.971 166.249 45.5759
v 195.733 167.201 44.9097
v 218.4 168.415 45.2788
v 223.076 168.239 45.4566
v 225.06 169.942 48.096
v 197.905 168.32 45.4128
v 216.633 169.65 47.6131
v 222.037 139.453 49.5829
v 214.588 140.667 47.3316
v 221.284 143.536 46.1814
v 194.714 142.409 46.6805
v 194.217 141.18 47.6101
v 192.692 142.568 47.5521
v 213.767 140.828 47.3835
v 222.912 143.553 46.5473
v 206.258 141.138 47.9963
v 201.618 141.275 46.7407
v 208.722 145.317 46.9384
v 191.976 143.334 47.5937
v 196.976 140.792 47.0423
v 207.045 142.652 47.713
v 190.913 144.94 47.4807
v 224.43 141.094 49.5153
v 228.236 148.135 47.0546
v 190.802 147.061 46.6498
v 207.842 144.128 47.3718
v 210.418 145.205 46.691
v 209.057 145.663 46.7058
v 189.5 155.356 46.1951
v 229.81 151.303 46.9831
v 230.459 164.843 46.4727
v 188.66 166.527 47.7609
v 229.778 167.11 47.1899
v 192.722 168.413 47.3518
v 194.462 169.194 47.382
v 197.586 169.516 47.3189
v 199.204 169.621 47.4841
v 195.162 139.102 48.8653
v 195.756 139.455 48.3807
v 193.57 137.213 50.4162
v 215.283 138.276 49.1541
v 205.227 137.644 49.4791
v 204.717 140.389 48.0031
v 211.586 140.164 48.1229
v 208.491 143.243 47.7147
v 185.858 147.952 49.4832
v 232.457 149.086 49.9463
v 182.568 149.154 50.3882
v 182.633 157.164 48.5923
v 236.059 153.498 51.1499
v 182.481 162.643 48.6888
v 183.257 165.028 48.6012
v 178.708 160.468 51.1305
v 183.983 164.172 48.2623
v 184.77 165.745 48.1977
v 184.765 167.317 48.4513
v 185.512 168.849 48.6983
v 229.153 168.979 48.1056
v 229.806 172.746 50.4646
v 192.722 169.04 47.6545
v 195.957 169.97 47.6622
v 201.579 169.653 47.5828
v 185.431 170.502 49.5364
v 192.546 172.803 48.5686
v 200.65 170.696 47.916
v 206.247 170.118 47.8164
v 211.485 173.408 48.8178
v 218.095 170.098 47.9053
v 234.873 168.426 49.8173
v 189.473 173.71 49.7602
v 199.061 170.682 47.8763
v 218.433 171.788 48.5987
v 220.493 173.141 49.8139
v 195.772 172.84 48.2754
v 196.338 174.299 48.8518
v 199.593 174.321 48.6602
v 198.98 172.856 48.1648
v 199.706 173.604 48.3588
v 201.362 172.855 48.1828
v 203.741 172.85 48.1927
v 204.473 173.583 48.424
v 205.316 172.836 48.2064
v 206.031 173.546 48.4536
v 216.726 175.652 51.4554
v 215.259 173.48 49.4083
v 205.17 174.27 48.8162
v 212.075 174.626 50.0478
v 196.482 176.77 50.406
v 208.739 175.975 51.1365
v 209.086 130.32 53.3866
v 212.714 134.906 50.5377
v 211.849 131.621 52.3144
v 191.417 131.825 52.8462
v 218.743 134.546 51.5251
v 227.61 136.37 51.8354
v 225.279 138.796 50.2854
v 226.157 138.085 50.7101
v 184.419 141.461 51.7609
v 224.436 140.336 49.8189
v 233.167 141.16 51.9296
v 183.591 143.923 51.5063
v 234.857 146.82 51.7431
v 234.202 148.163 51.2979
v 235.128 150.842 51.3559
v 180.589 155.116 50.1001
v 178.701 158.874 51.1283
v 236.47 152.344 51.6649
v 238.749 155.48 51.8338
v 238.949 167.6 51.7252
v 177.459 165.506 51.7914
v 175.271 168.11 52.1963
v 232.352 171.285 50.1718
v 238.259 169.367 51.7297
v 235.927 172.543 51.7409
v 224.538 175.483 51.7154
v 180.729 174.445 51.7673
v 223.071 174.91 51.4389
v 228.492 175.449 51.7277
v 188.614 175.985 50.2969
v 214.994 176.28 51.71
v 189.188 177.409 50.8654
v 203.13 177.29 51.6009
v 185.088 177.14 51.3358
v 198.068 180.661 53.1403
v 214.137 129.939 54.1579
v 220.99 131.161 53.3799
v 187.638 132.788 52.876
v 190.534 132.56 52.5007
v 205.095 130.417 52.9297
v 229.466 132.627 52.9091
v 221.404 132.491 52.416
v 228.45 134.041 52.2064
v 229.331 133.308 52.4804
v 233.216 131.488 55.7538
v 234.929 134.188 53.4989
v 233.966 135.618 52.2421
v 235.536 136.41 52.3631
v 238.902 136.471 55.5669
v 183.648 134.457 52.9472
v 181.915 136.615 52.6934
v 183.317 136.498 52.3068
v 234.726 137.187 52.0838
v 236.309 137.188 52.4101
v 180.569 135.911 54.0149
v 180.212 139.737 52.6234
v 229.985 137.18 51.9605
v 237.823 137.945 53.0837
v 237.827 139.511 52.5881
v 177.115 135.826 56.4836
v 179.641 139.903 52.8712
v 178.204 141.325 53.4868
v 179.424 141.315 52.6326
v 178.865 141.475 52.8909
v 237.867 141.906 52.3622
v 239.426 146.647 52.5399
v 239.469 139.377 54.2869
v 177.384 143.683 53.4943
v 175.355 145.54 55.241
v 178.589 143.663 52.6163
v 178.041 143.829 52.8893
v 177.761 147.544 52.4744
v 241.024 151.408 52.6931
v 241.613 145.467 55.4625
v 176.077 147.122 53.9669
v 176.501 147.66 53.3733
v 177.631 149.798 52.3431
v 173.496 150.494 56.2315
v 239.474 150.656 52.1612
v 175.041 153.212 53.5127
v 237.164 151.502 51.9077
v 241.032 152.214 52.5279
v 175.375 156.341 52.5884
v 241.833 156.193 52.2614
v 243.873 156.751 53.5685
v 244.637 150.083 57.361
v 242.581 156.945 52.485
v 241.843 157.784 52.1862
v 173.987 158.735 52.8846
v 174.641 158.707 52.5112
v 242.611 158.545 52.4009
v 177.424 159.184 51.7454
v 242.625 160.953 52.2408
v 243.344 162.483 52.4558
v 174.527 164.162 52.431
v 243.296 164.754 52.5939
v 172.662 160.407 54.137
v 173.829 165.786 52.8203
v 243.279 166.354 52.775
v 243.839 164.569 52.8855
v 244.503 164.683 53.5205
v 246.758 162.726 56.1342
v 175.264 164.926 52.1915
v 174.527 165.749 52.4296
v 173.828 170.537 52.8595
v 172.622 168.324 54.0733
v 173.829 166.579 52.8178
v 175.267 166.516 52.1915
v 243.715 168.65 53.5033
v 174.529 167.337 52.4291
v 241.802 168.055 52.2577
v 243.049 168.535 52.8783
v 242.505 168.722 52.5903
v 172.641 170.679 54.1716
v 174.522 172.085 52.5707
v 241.677 171.932 52.5077
v 240.133 174.346 52.385
v 176.046 173.66 52.1974
v 237.69 176.692 52.4742
v 174.556 174.441 53.1956
v 238.6 175.188 52.2244
v 173.946 174.885 54.186
v 172.726 175.233 55.774
v 176.039 175.233 52.4875
v 209.494 176.473 51.5807
v 233.779 178.32 52.3844
v 239.8 176.387 52.967
v 179.944 178.378 52.3924
v 241.654 176.835 54.7332
v 240.557 177.163 54.0497
v 174.318 177.636 55.6931
v 176.049 176.764 53.2447
v 181.395 179.817 52.9521
v 183.904 177.626 51.8518
v 213.859 178.324 52.5874
v 211.48 179.075 52.6478
v 221.13 178.361 52.5353
v 223.53 178.384 52.3983
v 227.472 179.13 52.4931
v 228.326 178.394 52.2088
v 229.058 179.131 52.4742
v 229.911 178.392 52.2084
v 232.201 179.082 52.5042
v 239.704 177.89 54.2309
v 183.109 178.393 52.1528
v 189.45 180.016 52.3233
v 208.306 179.867 52.6846
v 210.003 179.12 52.4746
v 177.934 179.647 54.7977
v 204.553 179.228 52.1815
v 205.272 179.932 52.4674
v 214.416 179.696 53.9974
v 222.609 179.051 52.8798
v 235.049 178.832 52.9067
v 238.721 178.448 54.2384
v 179.529 180.228 54.2149
v 210.67 179.736 52.971
v 211.285 179.614 52.9727
v 211.397 180.242 53.6931
v 221.535 180.126 54.475
v 228.17 179.816 52.9526
v 231.217 180.412 53.6417
v 233.6 180.199 53.6947
v 180.589 180.402 53.8091
v 188.842 182.227 55.0512
v 201.233 180.641 52.9189
v 205.839 181.201 53.641
v 208.191 181.007 53.7464
v 182.695 181.021 54.1171
v 193.764 181.651 54.5405
v 191.326 181.801 54.281
v 209.825 182.049 56.6079
v 184.668 128.223 57.7702
v 234.808 132.304 55.7503
v 175.738 141.673 55.7208
v 241.871 141.887 56.6559
v 244.277 155.611 54.6896
v 172.437 158.096 54.8808
v 244.581 174.117 55.8262
v 244.013 172.809 54.8941
v 242.65 177.75 56.1866
v 173.965 175.994 55.0933
v 216.591 180.002 54.9777
v 218.912 179.97 54.8916
v 196.706 183.468 57.7289
v 209.512 182.437 57.0081
v 230.163 127.684 58.6516
v 234.233 130.266 57.0152
v 182.154 128.996 57.6782
v 181.142 131.144 56.539
v 176.709 133.651 57.3841
v 176.995 135.058 56.7684
v 239.601 133.965 57.5082
v 242.003 138.138 57.5388
v 241.264 141.31 56.1673
v 242.297 140.884 57.205
v 243.581 141.287 57.7539
v 242.48 142.41 57.077
v 244.372 144.465 57.7621
v 243.83 146.209 57.4208
v 244.077 149.548 57.0489
v 245.41 152.546 57.4224
v 245.54 154.358 57.1191
v 170.879 154.245 57.4839
v 246.166 154.896 57.4355
v 246.523 157.833 56.8765
v 170.654 161.195 56.9918
v 246.752 159.437 56.6673
v 169.358 166.968 57.4855
v 170.551 169.802 56.658
v 169.349 170.146 57.4776
v 170.029 173.986 57.1908
v 172.359 172.728 55.2039
v 250.335 172.725 58.8353
v 251.074 169.401 59.3427
v 171.929 173.618 55.9198
v 168.783 175.109 57.7852
v 169.619 178.348 57.8224
v 174.383 180.75 56.4954
v 242.112 177.286 55.5166
v 242.462 178.282 56.4191
v 244.572 178.817 57.5585
v 238.966 181.162 57.2156
v 177.482 180.135 55.5533
v 178.201 180.186 55.2164
v 179.04 181.613 55.9984
v 220.931 183.716 59.2939
v 181.396 182.44 56.1764
v 185.876 183.713 57.1159
v 236.773 181.463 56.9701
v 190.818 182.631 55.7097
v 197.637 182.904 57.2538
v 199.067 183.484 57.78
v 173.549 182.383 57.5552
v 174.44 183.988 57.8496
v 229.233 126.659 60.1677
v 187.726 124.739 63.5347
v 189.732 124.292 64.5422
v 208.635 125.004 62.1371
v 234.222 126.09 62.5556
v 233.37 128.478 58.4823
v 180.901 128.52 58.7727
v 241.198 130.944 58.8233
v 176.973 130.866 58.7298
v 176.607 132.08 58.1158
v 245.9 130.168 63.1778
v 244.319 132.502 59.5932
v 245.026 134.808 58.6357
v 173.895 134.113 58.6171
v 170.86 139 58.843
v 246.578 138.732 58.5289
v 248.632 141.683 59.5099
v 247.334 141.876 58.4735
v 170.564 141.96 58.5011
v 168.746 142.965 59.9898
v 243.651 142.902 57.6558
v 246.595 142.713 58.1923
v 248.036 142.58 58.8463
v 168.643 145.258 59.4966
v 244.346 143.637 57.8044
v 247.351 143.464 58.4169
v 247.387 147.473 58.2047
v 168.006 146.143 60.009
v 248.823 148.129 58.843
v 168.996 149.945 58.7117
v 245.221 149.247 57.7147
v 167.255 148.589 60.6901
v 248.128 148.217 58.4346
v 247.392 149.063 58.1785
v 248.136 150.598 58.4103
v 167.211 151.692 60.0036
v 168.49 150.942 58.8833
v 245.965 151.597 57.7684
v 168.389 151.566 58.856
v 167.778 151.626 59.3728
v 168.328 152.312 58.8087
v 248.941 155.374 58.5181
v 166.931 154.819 60.0007
v 168.917 153.78 58.3643
v 168.885 155.339 58.2923
v 165.999 155.738 60.8957
v 167.691 156.489 58.873
v 249.624 156.079 58.8969
v 249.808 162.59 58.3084
v 248.528 162.895 57.5551
v 165.47 165.087 59.5061
v 162.892 157.811 63.5991
v 166.121 165.228 58.8902
v 250.466 164.035 58.7512
v 253.143 162.754 62.0699
v 165.87 172.202 58.6143
v 168.699 171.077 57.7511
v 165.234 172.998 58.8721
v 164.544 173.795 59.3625
v 165.862 173.717 58.4586
v 166.566 174.465 58.2066
v 249.385 176.516 58.8801
v 165.82 175.272 58.4297
v 165.102 181.623 58.9506
v 251.149 176.771 60.937
v 250.905 174.769 59.9376
v 247.713 179.682 58.9263
v 166.556 179.219 58.2057
v 245.397 181.963 58.9228
v 165.809 180.026 58.4371
v 170.453 180.785 57.9132
v 246.475 179.937 58.4019
v 167.328 180.8 58.0942
v 172.053 183.178 57.962
v 166.55 182.385 58.2981
v 209.019 185.266 59.3305
v 235.58 182.657 57.6446
v 240.724 184.996 59.4988
v 242.212 183.622 58.8595
v 165.783 183.16 58.8576
v 168.834 185.508 58.4693
v 219.87 184.815 60.7114
v 164.609 183.416 60.2165
v 249.421 182.973 62.8918
v 165.791 183.921 59.2228
v 171.242 185.541 58.1588
v 212.976 185.047 59.4558
v 228.056 184.465 59.3963
v 236.898 184.623 58.7835
v 164.786 185.59 61.6208
v 173.383 187.768 58.8481
v 195.526 185.949 59.3937
v 196.236 185.228 58.8391
v 205.177 184.684 58.7132
v 224.702 184.297 59.9351
v 174.395 186.33 58.164
v 183.593 190.039 61.1007
v 197.889 185.37 59.3089
v 175.999 186.342 58.1154
v 177.473 187.827 58.5267
v 178.968 187.774 58.5412
v 199.259 186.4 60.6979
v 195.394 186.528 60.0531
v 191.523 187.756 60.9578
v 175.613 188.531 59.1695
v 180.052 124.962 66.2988
v 175.002 127.974 64.3458
v 252.388 157.225 62.0431
v 161.162 176.065 62.8646
v 161.038 180.782 62.5775
v 164.002 182.376 60.4353
v 164.709 184.816 61.2461
v 225.216 185.287 61.1978
v 236.147 187.298 62.4079
v 168.866 188.865 61.6398
v 167.219 187.989 61.6746
v 171.908 188.443 59.9699
v 171.271 189.687 61.5251
v 172.522 189.259 60.7753
v 173.038 189.896 61.2629
v 173.731 190.532 61.556
v 182.799 190.105 61.0649
v 212.707 125.191 62.6037
v 229.866 122.861 70.2655
v 178.806 126.397 63.6496
v 240.648 127.038 63.5444
v 245.308 128.585 64.9859
v 171.808 130.363 64.4329
v 248.195 131.79 64.0095
v 248.235 133.254 62.645
v 248.964 131.887 65.478
v 168.762 133.555 64.4711
v 168.216 134.443 64.3346
v 249.492 133.224 64.2055
v 249.037 134.828 62.4822
v 168.432 135.032 63.426
v 167.005 135.861 65.3848
v 166.357 138.911 63.7532
v 252.011 141.804 62.9254
v 252.869 140.143 64.7423
v 253.33 140.974 65.6029
v 163.516 149.495 64.3723
v 253.411 151.914 63.6113
v 164.997 149.081 62.6049
v 164.352 150.679 62.8739
v 163.54 153.233 63.5125
v 163.145 149.416 65.2894
v 164.209 153.864 62.6281
v 165.35 154.364 61.7331
v 164.135 156.111 62.3198
v 255.243 158.26 67.2798
v 254.55 159.696 64.6424
v 254.69 161.93 64.5457
v 254.133 172.576 63.6876
v 251.491 178.64 62.1584
v 159.922 179.346 63.7181
v 254.055 177.289 66.0302
v 160.524 183.907 64.0947
v 161.806 183.964 62.5949
v 161.88 186.307 63.4026
v 248.596 185.331 65.3917
v 246.279 185.346 62.8598
v 163.344 187.12 62.563
v 205.031 189.899 63.6508
v 207.846 186.866 61.29
v 218.949 185.951 61.7703
v 216.29 187.176 62.4985
v 218.847 186.504 62.226
v 242.98 187.561 64.2912
v 162.579 187.089 63.1404
v 206.944 190.175 64.6347
v 215.339 188.299 63.6506
v 218.681 187.055 62.7712
v 219.744 187.833 64.221
v 223.311 186.916 62.7788
v 236.846 188.176 64.0784
v 162.756 188.576 64.3228
v 164.909 187.929 62.2084
v 192.142 189.915 62.7739
v 194.889 188.759 62.2994
v 197.37 188.786 62.4387
v 216.066 187.639 62.921
v 216.133 188.19 63.7174
v 223.747 188.335 66.9738
v 164.102 188.672 62.9549
v 166.473 190.265 62.6653
v 195.661 188.788 62.4186
v 195.867 189.965 64.0702
v 164.058 189.409 63.7538
v 190.524 190.609 62.8284
v 206.517 189.156 62.9828
v 163.16 189.445 65.1801
v 172.081 190.418 61.7209
v 179.297 191.392 61.6502
v 181.016 190.716 61.3143
v 183.28 191.307 61.7654
v 188.447 190.979 62.4948
v 168.824 192.579 63.1916
v 168.873 191.097 62.2318
v 169.615 192.611 62.7568
v 185.714 192.875 62.8931
v 192.189 190.663 64.2718
v 174.336 194.144 62.5847
v 174.493 191.225 61.76
v 190.972 191.032 63.935
v 181.976 193.976 62.7309
v 181.411 193.383 62.313
v 182.901 193.285 62.4486
v 183.809 192.614 62.2824
v 186.494 193.037 64.1004
v 169.531 193.811 64.2922
v 175.179 193.437 62.2069
v 175.884 194.134 62.4455
v 176.762 193.442 62.1777
v 178.074 194.716 62.826
v 180.971 194.492 62.8751
v 186.094 193.265 63.9412
v 174.911 195.235 63.5913
v 175.006 194.754 62.9518
v 175.752 194.745 62.877
v 183.249 194.18 63.4584
v 183.796 194.147 63.8926
v 184.377 193.917 64.0137
v 185.686 193.48 64.1989
v 181.05 195.104 64.1928
v 183.363 194.342 64.1846
v 177.406 195.59 65.2166
v 175.13 195.712 64.9662
v 179.027 195.354 64.1366
v 161.723 145.403 71.6824
v 158.101 182.991 70.1774
v 192.836 190.828 67.0232
v 190.724 190.883 66.6917
v 197.631 191.089 66.7586
v 185.337 192.41 66.9179
v 186.458 191.971 66.6697
v 181.673 194.206 66.6145
v 186.935 191.778 66.9231
v 188.929 191.357 67.1139
v 161.721 190.993 69.3393
v 186.169 192.937 65.2405
v 183.914 193.877 65.3065
v 186.06 193.228 64.6381
v 179.055 195.324 65.7524
v 175.821 195.729 65.1148
v 177.57 195.674 66.8858
v 183.79 194.128 64.6549
v 174.077 197.184 71.4384
v 189.823 121.859 74.9526
v 208.269 121.395 73.3472
v 212.584 123.388 67.8893
v 235.152 123.745 69.0021
v 238.687 123.699 70.7271
v 243.783 125.375 72.6665
v 252.089 133.8 73.1329
v 256.488 154.437 69.645
v 157.988 179.011 69.3747
v 251.164 183.276 66.6941
v 252.126 183.264 71.6578
v 189.53 191.126 66.9741
v 190.066 191.059 67.2296
v 185.35 192.477 67.3704
v 204.461 191.567 67.5093
v 183.224 193.431 67.1527
v 184.288 192.964 67.3085
v 170.047 196.476 70.9604
v 210.944 122.52 70.0658
v 216.228 123.072 69.344
v 219.393 123.075 69.3511
v 181.727 123.532 70.777
v 214.344 123.489 68.2535
v 219.459 123.926 67.5178
v 231.563 123.176 70.0552
v 174.657 126.011 71.4072
v 246.062 127.312 70.126
v 171.547 128.684 69.8687
v 168.357 131.47 73.6689
v 168.598 131.612 69.7801
v 249.394 129.999 72.8294
v 165.005 137.544 76.1746
v 163.675 139.468 71.1867
v 253.496 137.272 69.9395
v 255.827 144.248 72.7851
v 255.69 145.129 70.0008
v 255.96 145.6 70.7755
v 255.903 144.72 71.5396
v 256.166 147.452 71.9765
v 161.12 148.54 70.6147
v 256.115 149.419 70.8509
v 160.516 149.111 75.8599
v 256.523 151.81 70.4969
v 160.207 153.071 70.7288
v 158.86 161.282 71.8315
v 256.964 160.358 70.8009
v 257.23 161.454 72.3442
v 257.318 164.074 74.0197
v 256.771 168.308 70.8077
v 157.737 171.719 72.975
v 255.079 177.004 70.8812
v 252.918 181.994 70.5576
v 159.683 189.079 70.8836
v 249.709 185.647 70.9269
v 246.867 187.521 70.2943
v 231.657 190.622 72.4181
v 215.674 190.766 70.9038
v 224.913 189.395 69.5945
v 189.727 191.348 67.4937
v 207.138 191.709 68.9006
v 226.775 190.225 72.3716
v 226.628 190.119 71.2831
v 227.245 189.872 69.86
v 197.344 191.43 67.4484
v 200.54 191.658 67.3728
v 205.807 191.788 68.377
v 236.999 190.652 73.9254
v 162.385 192.266 70.3758
v 184.996 192.835 67.7286
v 186.838 193.425 69.3445
v 190.925 192.652 68.8346
v 165.881 194.616 70.9624
v 206.497 192.088 70.0714
v 190.264 194.132 71.5929
v 200.759 193.563 71.5798
v 204.618 192.447 72.8299
v 184.201 195.934 74.6556
v 226.336 121.952 72.8582
v 228.212 122.317 71.5562
v 179.609 123.641 73.4269
v 256.625 151.38 72.7845
v 256.697 151.855 71.5377
v 159.622 155.72 71.8475
v 159.214 158.133 72.6676
v 158.507 186.985 73.9262
v 161.363 191.943 72.8644
v 242.444 189.575 73.5198
v 206.199 192.005 72.9134
v 179.433 196.638 76.9722
v 231.614 121.044 79.011
v 180.663 123.48 77.9345
v 246.957 127.888 77.0178
v 248.95 129.753 76.5352
v 163.755 141.01 77.4173
v 161.615 145.404 74.916
v 255.908 144.881 74.137
v 256.527 152.297 75.8093
v 159.326 154.917 74.3116
v 159.409 154.987 76.7749
v 256.975 161.298 77.015
v 158.225 162.611 75.9696
v 158.488 163.835 72.9864
v 254.499 176.85 77.2623
v 250.588 184.588 74.9327
v 157.615 182.428 76.0529
v 244.952 187.576 78.7391
v 240.538 189.643 77.2325
v 213.209 190.911 76.3599
v 220.26 190.002 75.9567
v 230.251 190.287 77.0843
v 237.535 190.525 75.456
v 208.184 191.672 73.4575
v 207.883 191.678 76.8372
v 163.328 193.427 76.7706
v 174.552 197.172 74.4288
v 175.084 126.134 78.5028
v 173.878 126.689 77.3461
v 237.061 122.428 79.2433
v 173.664 126.477 74.4844
v 168.544 132.228 77.1662
v 244.655 126.264 77.2979
v 168.091 132.6 76.5319
v 167.612 132.981 75.5215
v 250.423 133.095 78.6057
v 252.792 138.586 78.7771
v 254.899 143.997 78.0127
v 254.562 152.209 80.0026
v 158.345 162.656 78.9637
v 257.11 165.851 75.7656
v 158.063 171.126 82.3142
v 252.981 179.123 79.1705
v 250.359 184.278 77.2987
v 252.578 181.123 77.6065
v 158.99 186.097 78.3574
v 160.453 189.799 78.322
v 161.033 191.411 76.6199
v 216.528 190.21 76.5305
v 236.818 189.963 78.2559
v 211.595 190.705 78.4046
v 200.048 193.519 77.0225
v 171.49 196.376 77.5159
v 192.942 122.425 86.7769
v 169.175 132.782 78.9786
v 252.515 136.137 77.6826
v 161.846 147.262 78.4982
v 161.343 147.425 77.4138
v 256.601 161.484 78.2645
v 256.131 162.467 79.2768
v 256.568 166.886 77.6197
v 256.833 167.052 76.4866
v 157.336 173.688 77.9203
v 158.937 180.393 82.1408
v 248.391 184.867 79.7116
v 216.25 189.98 77.6431
v 237.37 188.96 80.0299
v 208.274 191.434 77.6114
v 178.308 196.473 78.44
v 217.012 120.554 79.3417
v 208.222 120.556 77.9648
v 221.335 120.038 82.2513
v 230.368 120.638 84.3066
v 204.62 120.695 82.1204
v 230.878 120.632 82.342
v 230.97 120.768 83.6358
v 235.314 121.772 79.2814
v 235.201 121.785 80.6437
v 238.718 124.078 82.2855
v 237.51 122.821 80.8118
v 179.57 124.282 80.4203
v 183.201 124.85 86.9264
v 175.258 127.109 81.0402
v 245.952 129.952 80.335
v 246.53 128.444 78.7396
v 246.595 129.205 79.4357
v 248.084 129.993 78.7146
v 248.15 130.78 79.3055
v 171.151 133.22 81.631
v 248.298 134.826 80.6115
v 242.628 129.194 83.4799
v 249.769 133.954 79.6453
v 250.493 133.908 79.0806
v 249.495 147.16 83.0733
v 165.12 144.749 81.1033
v 251.449 147.446 81.6896
v 162.362 147.551 79.5362
v 162.983 151.051 82.5067
v 160.397 155.092 80.6961
v 252.935 156.054 81.5537
v 253.522 153.497 81.0532
v 255.545 166.555 79.9126
v 253.872 165.314 82.2633
v 253.44 168.216 82.4007
v 256.102 166.975 78.6964
v 252.464 174.183 82.5559
v 157.454 173.029 79.5882
v 161.726 189.902 80.317
v 221.621 188.313 80.3407
v 234.987 188.988 80.0546
v 231.009 188.971 79.9717
v 239.959 188.373 80.4479
v 243.785 187.514 80.1733
v 241.895 188.558 79.4879
v 229.188 189.574 78.5724
v 230.017 189.519 79.0027
v 164.694 192.922 80.1325
v 211.967 189.647 80.2559
v 206.397 191.232 79.2186
v 229.869 189.968 77.9883
v 199.436 192.347 80.0967
v 201.179 189.291 82.6872
v 163.156 191.458 80.4186
v 199.303 191.887 80.7945
v 199.34 192.887 79.1957
v 198.059 192.368 80.6041
v 165.487 193.552 79.7647
v 169.324 194.667 80.2046
v 180.078 195.348 83.8266
v 234.076 121.82 83.2915
v 171.911 139.502 85.3553
v 170.055 142.358 84.868
v 166.586 144.797 82.8534
v 248.122 148.068 83.6286
v 250.559 161.707 83.7796
v 250.864 178.153 82.8371
v 249.188 182.509 81.5219
v 247.34 184.473 81.3563
v 224.689 184.339 82.5405
v 222.822 186.346 81.7478
v 219.596 182.314 83.5263
v 221.932 187.041 81.4209
v 234.62 186.107 82.8636
v 236.99 185.405 83.4373
v 242.561 186.911 81.5707
v 214.604 187.632 81.4012
v 199.57 190.13 82.599
v 163.454 190.438 81.5017
v 165.04 191.231 81.8316
v 167.434 191.505 82.5243
v 164.219 191.924 80.8542
v 166.494 192.698 81.3424
v 192.827 193.538 81.2745
v 193.099 191.812 83.9811
v 194.572 192.782 81.7623
v 170.454 191.533 83.9141
v 171.165 194.28 81.3858
v 189.139 194.103 82.7606
v 173.078 194.163 82.5154
v 185.459 194.94 82.298
v 224.237 119.848 85.614
v 203.086 120.883 84.9085
v 188.404 123.386 89.7333
v 179.019 126.093 83.4683
v 236.293 123.661 84.9033
v 175.984 131.903 85.4274
v 171.567 135.229 83.1864
v 174.617 135.11 86.3693
v 173.036 136.232 84.7683
v 174.202 135.555 85.8843
v 237.787 133.031 87.4324
v 168.213 145.771 84.6826
v 166.157 149.62 84.583
v 238.599 152.059 87.509
v 243.336 152.057 85.4972
v 249.771 159.336 83.7629
v 244.656 156.432 84.5413
v 162.964 162.294 88.966
v 245.17 160.198 84.4943
v 246.681 161.762 84.2114
v 245.002 164.82 85.581
v 252.707 166.237 83.2533
v 252.048 167.056 83.5212
v 252.601 166.85 83.2888
v 251.802 174.043 83.1875
v 248.574 171.449 84.5902
v 159.677 176.637 84.8744
v 160.994 171.514 89.1822
v 251.263 174.234 83.4888
v 158.159 175.749 81.9558
v 245.96 177.678 85.867
v 159.592 176.792 84.4124
v 247.144 178.883 85.0944
v 159.401 177.65 83.7942
v 219.315 180.412 84.2493
v 218.521 179.552 84.8116
v 218.463 178.105 86.4486
v 222.307 179.574 84.4092
v 159.923 180.672 83.974
v 213.788 181.244 84.2739
v 216.697 181 84.1898
v 223.459 178.947 84.8824
v 224.715 179.625 84.5826
v 225.851 179.645 84.7906
v 245.569 181.893 84.5707
v 226.909 180.883 84.3841
v 160.214 181.815 83.6482
v 160.134 181.288 84.2253
v 207.399 182.277 84.6854
v 206.246 182.302 85.0152
v 207.069 181.786 85.2286
v 208.066 182.749 84.2962
v 212.015 180.209 85.5134
v 214.818 183.063 83.5029
v 160.489 182.401 83.9188
v 160.845 183.236 83.8179
v 233.441 181.952 84.5308
v 161.672 184.422 83.8868
v 198.096 186.19 84.9238
v 239.295 182.936 85.021
v 162.446 185.287 83.9314
v 242.267 183.416 84.5831
v 163.61 186.482 83.9444
v 164.02 186.891 83.9624
v 164.402 187.273 83.948
v 164.814 187.683 83.9565
v 165.618 188.476 83.9342
v 189.991 186.867 86.8575
v 194.542 190.49 84.4533
v 166.9 189.653 83.8418
v 168.115 190.514 83.8084
v 168.921 190.885 83.8082
v 169.515 191.092 83.8457
v 169.94 191.276 83.9171
v 170.952 191.77 83.9164
v 171.337 192.051 83.8567
v 171.324 191.972 84.0012
v 171.693 192.219 84.0086
v 172.075 192.499 84.1544
v 172.889 193.153 83.8058
v 173.209 193.116 84.3157
v 173.605 193.229 84.7054
v 175.427 194.092 84.2246
v 189.562 193.585 84.0156
v 188.822 194.038 84.0888
v 177.839 194.665 84.343
v 186.155 195.036 83.8438
v 185.099 195.2 84.0592
v 185.647 195.138 83.425
v 188.041 194.392 84.171
v 210.592 119.271 88.9004
v 202.295 120.857 86.3122
v 233.17 122.185 85.562
v 230.622 121.242 86.7134
v 233.892 122.17 84.6322
v 197.132 121.376 86.8918
v 235.549 124.347 86.2001
v 236.314 125.139 86.1918
v 236.881 127.47 86.9226
v 237.947 126.79 85.8306
v 180.12 127.773 89.0124
v 179.596 130.488 90.736
v 236.272 129.156 87.6419
v 239.412 128.324 85.3877
v 238.33 130.353 86.7339
v 175.229 135.789 88.522
v 172.341 143.945 89.1799
v 171.689 143.929 88.4663
v 170.818 147.181 89.0671
v 235.837 142.139 88.4936
v 240.616 154.768 86.5138
v 167.506 154.164 89.1997
v 239.358 159.979 87.4865
v 162.168 161.605 87.6421
v 241.504 163.573 86.448
v 240.295 163 86.9946
v 243.491 165.628 86.2378
v 242.613 167.284 87.3732
v 244.152 169.593 87.4971
v 246.124 173.179 86.598
v 160.579 169.499 88.293
v 226.416 177.463 86.7251
v 243.109 175.575 87.3721
v 239.444 176.743 87.503
v 208.311 174.91 92.6676
v 216.543 174.275 91.2478
v 232.884 177.706 87.2594
v 236.69 178.778 86.5167
v 160.099 179.883 86.7531
v 159.897 180.815 85.2962
v 200.259 181.194 89.1237
v 160.058 182.501 85.3472
v 160.273 185.172 85.8714
v 160.219 184.73 85.6185
v 160.889 183.953 84.4111
v 161.293 184.027 84.0465
v 196.02 179.37 90.1487
v 160.549 184.761 85.0206
v 161.553 184.808 84.2019
v 162.044 184.954 84.0053
v 161.871 187.131 84.5088
v 160.859 187.074 86.1249
v 160.937 187.069 85.5996
v 164.396 187.388 83.9859
v 161.026 187.527 85.8666
v 161.929 187.913 84.6592
v 163.306 187.949 84.1202
v 161.651 189.447 86.129
v 161.594 188.747 85.4195
v 162.097 189.487 85.0038
v 162.637 188.716 84.3967
v 189.892 192.248 85.1363
v 186.354 192.647 85.8545
v 161.818 189.897 85.8774
v 162.724 190.277 84.6931
v 167.895 190.579 83.9494
v 169.505 191.154 83.9382
v 162.448 191.697 86.1744
v 162.512 191.688 85.7329
v 164.143 191.826 84.4078
v 163.44 191.788 84.7206
v 164.908 191.852 84.2351
v 170.943 191.829 84.0378
v 188.448 193.083 85.3322
v 187.045 193.274 85.599
v 189.251 192.385 85.3403
v 166.434 192.607 84.258
v 166.208 193.798 85.0194
v 167.977 192.607 84.2335
v 168.607 193.241 84.4917
v 169.312 193.228 84.5978
v 178.781 192.98 86.3157
v 179.811 190.107 87.4937
v 183.885 194.672 85.2189
v 162.603 192.038 85.9907
v 162.822 192.354 86.0761
v 162.919 192.293 85.6233
v 163.448 192.416 85.096
v 164.049 193.031 85.1604
v 164.859 192.558 84.4781
v 167.121 193.282 84.4761
v 171.564 192.669 84.533
v 172.773 193.109 85.2909
v 185.437 194.011 85.528
v 184.766 193.414 85.8047
v 184.256 191.346 86.2434
v 163.096 192.661 85.9494
v 163.389 192.955 86.0667
v 171.979 193.129 85.1804
v 173.652 193.04 86.1329
v 173.401 192.304 87.2122
v 185.981 194.427 85.1413
v 188.284 193.579 85.1017
v 163.696 193.227 85.9407
v 164.01 193.445 86.0265
v 164.007 193.358 85.6346
v 164.349 193.595 85.8455
v 166.75 194.191 85.4112
v 169.051 193.683 84.8696
v 171.277 193.406 85.4335
v 171.346 193.503 86.1357
v 173.055 193.094 86.0547
v 166.12 194.178 86.1351
v 169.464 194.07 85.8585
v 185.371 194.552 85.1685
v 166.54 194.303 85.8899
v 169.016 194.206 86.1246
v 220.712 119.551 86.6178
v 223.071 119.54 89.1674
v 231.176 122.329 87.8528
v 230.788 121.681 87.4841
v 231.286 123.158 88.4512
v 234.685 125.24 87.3336
v 234.23 131.018 88.496
v 175.71 133.842 87.6022
v 175.1 138.056 89.6665
v 235.226 151.85 88.9263
v 168.29 151.191 88.5605
v 236.494 152.372 88.2297
v 235.791 156.327 88.3625
v 239.359 156.815 87.416
v 236.542 160.352 88.4451
v 234.725 166.488 89.8021
v 238.833 168.946 88.3234
v 234.714 168.88 89.9087
v 242.632 168.876 87.8007
v 243.278 174.259 87.65
v 244.793 172.624 87.4006
v 240.211 175.967 87.7072
v 232.783 175.671 89.2552
v 235.346 173.463 89.6772
v 160.381 177.242 87.7603
v 236.659 177.022 87.6654
v 237.289 176.928 87.645
v 223.312 176.511 88.0718
v 227.469 175.885 88.9759
v 160.539 180.392 87.3733
v 161.141 181.02 87.8082
v 161.157 182.596 87.6166
v 162.832 181.341 88.6429
v 160.26 184.535 86.6128
v 163.474 182.422 88.3414
v 167.885 182.155 89.057
v 177.09 183.434 88.3361
v 175.914 182.258 89.1092
v 179.65 182.82 88.6475
v 184.221 183.419 88.3114
v 165.017 184.041 88.1017
v 170.621 184.101 88.153
v 167.537 183.397 88.3074
v 171.538 183.432 88.3359
v 178.553 184.104 88.153
v 179.469 183.433 88.3358
v 161.17 184.16 87.5415
v 161.854 184.853 87.7525
v 187.757 179.828 90.8307
v 192.295 183.571 88.6394
v 185.896 182.812 88.6038
v 160.662 185.087 86.9984
v 161.229 185.757 87.3324
v 162.597 185.597 87.8714
v 171.202 191.775 87.7367
v 169.72 185.58 88.0175
v 181.446 188.587 87.6921
v 161.408 187.421 87.0145
v 161.898 186.464 87.6036
v 162.686 188.836 87.6053
v 178.378 188.687 87.8921
v 162.005 188.118 87.3413
v 173.491 191.7 87.5558
v 162.316 190.648 86.694
v 172.803 191.027 87.7996
v 163.488 191.182 87.5284
v 167.302 191.861 87.8977
v 163.02 191.998 86.8533
v 164.963 191.883 87.7661
v 170.288 193.092 87.275
v 162.691 192.041 86.3834
v 171.67 192.852 87.1491
v 163.635 192.6 86.9139
v 164.98 192.614 87.5214
v 165.755 193.289 87.3016
v 164.309 193.177 86.8131
v 164.97 193.648 86.5128
v 166.517 193.852 86.976
v 168.608 194.121 86.6524
v 170.066 193.614 86.7686
v 166.551 194.21 86.3908
v 205.431 119.692 89.7022
v 206.456 119.48 89.9879
v 207.546 119.761 92.6181
v 221.325 119.6 90.585
v 222.709 119.482 89.6476
v 223.151 119.647 89.9448
v 198.822 120.467 90.0713
v 198.351 120.58 89.7357
v 209.021 118.443 97.264
v 225.092 120.731 90.7248
v 195.959 121.29 89.7275
v 227.24 121.517 90.2622
v 229.75 121.317 87.9306
v 227.939 122.432 90.5073
v 228.731 124.027 90.6464
v 185.806 124.569 90.3886
v 184.143 124.855 89.3705
v 230.714 124.334 89.3971
v 228.922 126.572 91.0503
v 181.735 126.266 89.2037
v 228.956 128.136 91.144
v 178.228 131.732 90.0631
v 233.095 134.668 89.5099
v 228.266 136.408 90.7412
v 176.294 136.088 90.3962
v 229.459 136.576 90.2768
v 232.351 135.563 89.8161
v 176.372 140.79 91.3884
v 230.711 144.205 91.5289
v 172.112 146.067 89.6175
v 176.871 144.434 91.7346
v 229.96 145.069 91.8424
v 230.73 147.402 91.7416
v 228.25 153.641 93.4105
v 163.497 162.787 89.4402
v 169.799 165.125 91.7347
v 162.068 163.88 88.4779
v 162.112 165.436 89.0053
v 163.323 165.016 89.6683
v 231.996 164.572 90.2528
v 161.343 166.285 88.3354
v 162.621 165.898 89.4861
v 163.01 167.776 90.0255
v 226.317 170.75 90.1957
v 162.235 169.448 89.9701
v 236.238 170.379 89.6739
v 162.972 173.159 91.007
v 228.353 174.427 89.7893
v 219.412 176.574 88.6752
v 221.674 173.216 90.4456
v 224.361 170.226 90.8609
v 223.496 175.181 89.3241
v 221.355 175.259 89.6448
v 222.519 175.697 89.1359
v 162.842 175.488 90.8694
v 224.916 175.81 88.6804
v 190.968 178.427 91.0589
v 203.015 176.866 91.3746
v 194.005 178.182 90.8193
v 194.807 178.166 90.802
v 164.989 178.444 91.2084
v 163.366 180.06 89.5146
v 193.796 178.776 90.4306
v 194.444 179.393 90.1718
v 195.384 178.737 90.406
v 165.522 180.135 90.3971
v 166.141 180.327 90.4434
v 167.487 180.612 90.5589
v 169.261 181.116 90.2829
v 194.243 181.54 89.6616
v 193.376 182.265 89.4041
v 180.661 179.848 91.3451
v 191.823 182.288 89.4604
v 192.694 181.577 89.7163
v 219.7 119.492 90.6483
v 199.678 120.732 91.3185
v 218.633 119.821 92.4444
v 219.038 119.907 92.2615
v 196.585 121.587 91.317
v 204.17 120.567 92.5732
v 202.713 120.835 93.4392
v 205.966 120.093 92.3256
v 205.333 120.226 92.2187
v 217.237 119.495 93.8793
v 220.977 120.299 92.0854
v 223.562 120.645 91.3812
v 196.892 122.258 92.4236
v 200.725 120.995 92.1147
v 204.536 120.443 92.9448
v 220.106 120.483 93.8333
v 222.151 121.777 93.4763
v 224.011 123.262 92.8349
v 191.125 123.274 91.2162
v 200.559 121.45 93.2219
v 200.555 121.316 92.6877
v 221.022 122.003 94.82
v 226.672 122.052 91.0454
v 185.917 125.073 91.0682
v 224.615 123.749 92.554
v 189.189 125.064 91.947
v 194.694 124.477 93.9827
v 224.678 124.907 92.7616
v 184.39 125.824 91.0186
v 182.047 126.688 90.2619
v 185.751 125.577 91.3437
v 186.463 125.517 91.5066
v 192.595 126.102 93.7315
v 222.602 123.746 94.5171
v 225.328 125.609 92.4113
v 183.441 126.476 91.0605
v 182.813 126.684 90.9203
v 224.823 128.723 92.5586
v 181.882 127.995 91.1605
v 182.05 127.406 90.9399
v 182.661 127.239 91.1903
v 184.047 127.777 91.7486
v 182.513 128.614 91.6212
v 184.785 128.499 91.9065
v 222.508 127.912 94.5549
v 225.438 129.38 92.2753
v 228.228 130.635 91.4674
v 180.922 130.32 91.4481
v 180.331 130.533 91.2581
v 181.608 134.047 91.9339
v 193.041 136.199 94.5655
v 224.786 131.804 92.5577
v 178.749 133.711 91.3842
v 221.334 136.314 94.4822
v 186.269 135.559 92.0527
v 177.19 136.855 91.3055
v 187.405 137.624 92.3183
v 176.294 138.385 90.9723
v 178.437 141.199 91.8918
v 184.997 142.509 92.5497
v 182.238 142.614 92.0687
v 227.764 146.021 92.2659
v 227.672 147.416 92.492
v 228.443 147.481 92.2345
v 181.121 151.072 93.4864
v 225.978 148.217 93.5813
v 228.256 156.804 93.4754
v 226.471 163.777 93.116
v 223.122 169.012 92.146
v 166.543 172.9 91.9279
v 221.967 167.156 93.6184
v 217.922 171.258 92.9149
v 169.635 179.15 91.6477
v 177.635 171.307 93.7017
v 180.098 176.131 92.1808
v 173.651 172.094 92.0808
v 165.742 176.862 91.8178
v 168.101 177.619 91.9118
v 172.013 179.149 91.6616
v 174.444 177.616 91.9321
v 175.112 179.869 91.3508
v 173.526 179.869 91.3508
v 191.784 175.911 93.3259
v 194.878 173.464 94.9864
v 174.391 179.149 91.6619
v 179.982 178.391 91.8469
v 186.522 173.022 94.2965
v 174.194 180.537 90.8922
v 204.793 120.255 93.3894
v 219.458 120.347 94.241
v 198.584 123.39 95.9665
v 200.717 121.493 94.1813
v 195.186 124.064 93.893
v 221.161 124.368 95.5694
v 194.562 128.06 95.4642
v 219.625 137.107 95.573
v 221.112 140.161 95.4077
v 221.738 144.003 95.121
v 182.746 148.677 93.4347
v 191.032 142.902 94.9956
v 189.842 144.815 94.8257
v 187.644 146.518 94.2347
v 188.709 147.694 94.97
v 185.778 151.921 94.865
v 218.078 152.567 95.0286
v 219.404 152.555 94.3862
v 183.66 152.011 94.1574
v 218.624 153.086 94.7334
v 219.912 153.14 94.2505
v 221.303 153.851 94.076
v 183.296 154.75 94.8837
v 218.178 153.821 95.1876
v 221.274 155.348 94.2615
v 223.683 159.41 94.178
v 179.657 161.524 94.5361
v 226.722 160.061 93.7598
v 180.249 162.166 94.9383
v 179.012 163.245 94.2706
v 180.263 163.769 94.9286
v 179.859 166.485 94.3329
v 179.923 167.298 94.2483
v 181.07 167.022 94.9269
v 216.987 166.19 95.5615
v 180.792 168.115 94.4218
v 183.171 170.574 94.5791
v 184.047 167.47 97.3185
v 216.74 169.159 94.6284
v 213.91 170.137 95.4289
v 179.961 172.826 93.6225
v 185.534 168.928 97.3947
v 184.028 172.134 94.1766
v 178.404 172.071 93.6561
v 185.801 172.231 94.5885
v 203.247 172.28 95.8246
v 193.858 174.028 94.501
v 204.915 119.475 96.0332
v 204.825 119.791 94.6479
v 208.084 118.492 97.1486
v 215.181 119.686 96.1857
v 217.236 119.667 94.4445
v 203.09 120.486 96.5425
v 204.489 119.698 96.5031
v 215.897 120.286 96.4874
v 216.504 120.53 96.1869
v 218.081 121.375 95.8691
v 220.091 120.734 94.3108
v 201.743 121.363 96.4817
v 216.588 121.063 96.608
v 216.803 121.688 96.8205
v 220.259 121.359 94.8738
v 217.505 122.259 96.514
v 220.352 122.078 95.3144
v 197.239 125.933 96.5679
v 218.324 124.698 96.4776
v 198.359 129.458 97.4724
v 216.239 128.135 97.4823
v 215.312 130.485 97.4175
v 217.504 132.614 96.0659
v 216.01 134.226 96.2517
v 214.46 134.228 96.7711
v 218.098 136.383 95.8787
v 215.368 135.157 96.3053
v 211.106 137.324 98.2752
v 214.533 135.818 96.5416
v 215.789 141.976 96.2051
v 214.558 143.073 96.8311
v 193.499 143.103 97.2313
v 215.15 142.906 96.4854
v 220.023 147.104 95.3956
v 214.024 151.33 97.5185
v 215.099 155.782 96.43
v 213.011 155.056 97.46
v 218.098 155.423 95.699
v 214.371 155.659 96.7274
v 219.621 157.735 95.6823
v 215.872 156.407 96.1772
v 211.671 161.66 97.6853
v 182.139 160.755 96.4952
v 215.065 164.246 96.2327
v 181.982 163.126 96.5423
v 212.358 163.936 97.4584
v 182.09 165.472 96.4114
v 216.855 167.904 95.0934
v 212.041 167.873 97.032
v 209.792 170.73 96.4824
v 210.681 172.487 94.6773
v 200.489 169.521 99.5252
v 194.14 170.313 99.0877
v 206.253 118.904 98.5938
v 211.478 118.761 97.7714
v 203.813 120.112 96.7094
v 204.272 119.919 97.0376
v 213.441 119.677 98.065
v 202.692 121.254 97.3876
v 203.976 120.35 97.9987
v 214.291 120.286 98.2479
v 215.019 120.97 98.2647
v 203.598 120.725 97.9494
v 203.189 121.057 97.7055
v 215.663 121.738 98.1148
v 200.803 123.174 97.3189
v 202.616 121.89 97.8929
v 202.904 121.731 98.2895
v 202.456 122.809 98.2489
v 202.712 122.534 98.6012
v 215.232 123.509 98.9317
v 202.392 123.626 98.3689
v 202.928 123.563 99.0288
v 202.629 124.247 98.5043
v 200.727 124.599 97.734
v 198.465 127.123 97.4156
v 202.733 124.793 98.4622
v 205.074 125.902 98.9596
v 214.567 127.981 98.1738
v 200.631 129.279 97.9307
v 203.799 129.259 98.0001
v 206.277 127.798 98.2251
v 212.154 128.711 98.6448
v 211.201 129.421 98.3926
v 199.083 130.154 97.7122
v 198.278 134.182 97.5371
v 207.866 127.907 98.4028
v 208.567 130.076 98.0444
v 210.194 130.084 98.1409
v 213.217 132.196 97.6451
v 211.685 133.898 97.7911
v 205.47 135.689 99.4019
v 196.339 142.999 98.9955
v 201.581 135.129 98.7823
v 202.393 136.641 99.4261
v 208.542 139.523 99.8239
v 210.788 138.849 98.789
v 194.505 151.027 100.707
v 198.348 143.658 99.7537
v 207.99 161.066 98.3143
v 188.296 158.231 99.4597
v 185.373 157.605 97.8795
v 187.555 158.997 99.3953
v 183.236 162.743 97.5279
v 186.489 162.766 99.4426
v 183.301 165.942 97.2662
v 187.223 165.036 99.5093
v 206.523 167.071 99.0588
v 206.589 165.329 99.3777
v 208.675 168.249 97.9983
v 205.186 169.311 98.6491
v 209.298 168.796 97.6953
v 192.675 168.882 99.6719
v 207.129 169.796 97.7956
v 207.935 169.076 97.9185
v 209.852 169.259 97.3693
v 191.873 169.65 99.1123
v 203.253 170.596 98.2095
v 206.723 118.827 100.11
v 207.95 118.514 99.4159
v 208.715 118.725 99.9203
v 204.386 119.669 99.5163
v 204.455 119.693 100.185
v 204.019 119.88 99.9548
v 204.628 119.625 98.8911
v 203.687 120.167 100.11
v 212.326 119.981 99.9444
v 202.472 121.477 100.11
v 202.759 121.308 99.0554
v 212.764 120.309 100.008
v 213.994 121.314 99.6077
v 212.973 120.697 100.228
v 202.268 121.781 99.9509
v 212.942 121.147 100.543
v 202.13 122.424 100.057
v 202.242 122.002 99.6322
v 202.528 121.815 99.1499
v 213.496 123.164 100.444
v 202.135 122.33 99.8027
v 202.356 122.39 99.4797
v 202.67 122.163 98.8772
v 202.193 122.539 99.8717
v 202.424 122.742 99.875
v 202.666 122.863 99.3577
v 213.382 123.797 100.382
v 202.96 123.315 99.7379
v 203.798 124.439 99.4649
v 204.147 124.059 100.247
v 205.199 124.712 100.214
v 208.343 124.29 101.1
v 210.019 123.557 101.446
v 212.136 124.675 100.579
v 204.665 135.676 99.4464
v 203.122 135.839 99.4224
v 205.39 137.992 99.9166
v 203.051 138.101 99.7642
v 207.756 140.344 99.9477
v 206.965 141.146 99.9812
v 208.543 141.123 99.9058
v 210.082 141.83 99.6234
v 201.974 150.531 101.008
v 200.577 146.66 100.055
v 202.538 154.827 100.28
v 199.525 148.073 100.424
v 198.955 146.655 100.059
v 198.556 150.214 101.389
v 195.244 153.239 101.669
v 190.513 154.861 99.6367
v 192.924 156.46 101.377
v 188.831 156.645 99.2434
v 192.82 157.965 101.261
v 204.58 161.721 99.817
v 198.458 161.913 100.107
v 194.279 157.818 101.698
v 195.282 162.642 100.191
v 187.211 163.465 99.6745
v 191.914 161.783 100.074
v 187.966 164.2 99.8107
v 202.897 167.984 99.7225
v 204.543 164.88 99.8785
v 199.823 166.518 99.9749
v 199.061 164.161 100.003
v 199.801 168.077 99.8938
v 202.648 169.304 99.3332
v 200.546 168.815 99.7453
v 202.792 170.019 98.8405
v 208.396 118.826 100.32
v 207.175 118.996 100.62
v 204.193 120.057 100.589
v 205.573 120.139 101.263
v 207.123 119.452 101.125
v 207.824 119.365 101.089
v 204.246 120.502 101.092
v 207.798 120.64 101.72
v 207.091 120.018 101.485
v 208.555 119.914 101.418
v 210.077 119.857 100.99
v 202.926 121.291 100.597
v 203.544 121.196 101.094
v 204.102 121.002 101.286
v 204.775 120.876 101.463
v 208.562 120.612 101.701
v 210.107 121.313 101.708
v 210.873 120.546 101.247
v 211.619 121.243 101.31
v 202.888 121.877 100.884
v 203.383 121.722 101.162
v 204.021 121.617 101.423
v 205.449 121.458 101.689
v 207.748 122.117 101.802
v 209.32 122.094 101.797
v 210.858 122.034 101.664
v 204.659 122.218 101.56
v 202.628 122.76 100.358
v 203.853 122.903 101.095
v 205.364 122.901 101.509
v 209.289 122.848 101.685
v 205.983 124.261 100.859
v 199.841 150.692 101.528
v 199.748 152.091 101.651
v 201.067 151.845 101.363
v 193.932 153.459 101.334
v 195.842 156.184 101.84
v 195.771 157.69 101.732

f 1 2 3
f 4 5 6
f 7 3 8
f 3 2 8
f 5 9 6
f 2 1 8
f 1 4 10
f 8 1 10
f 7 8 11
f 12 7 11
f 8 10 13
f 11 8 13
f 12 11 14
f 14 15 12
f 16 9 17
f 10 4 6
f 18 9 16
f 19 6 9
f 14 11 13
f 19 9 20
f 21 15 14
f 18 16 22
f 9 18 20
f 20 18 22
f 10 6 23
f 24 10 25
f 14 13 26
f 23 6 19
f 10 23 27
f 10 28 29
f 25 10 29
f 13 10 24
f 14 26 21
f 13 21 26
f 23 19 30
f 28 10 27
f 29 28 27
f 19 20 31
f 30 19 31
f 25 29 32
f 24 25 32
f 13 24 33
f 23 30 27
f 29 27 32
f 34 35 36
f 35 37 38
f 38 37 3
f 39 3 40
f 7 12 40
f 37 35 5
f 3 37 4
f 40 3 7
f 4 37 5
f 3 4 1
f 5 17 9
f 41 12 15
f 41 15 42
f 16 17 43
f 44 15 21
f 42 15 44
f 41 42 44
f 16 43 22
f 44 21 45
f 45 21 46
f 20 22 43
f 13 47 21
f 46 21 48
f 49 44 45
f 46 49 45
f 20 43 50
f 33 47 13
f 21 47 48
f 20 50 31
f 30 32 27
f 24 32 33
f 33 32 51
f 47 33 51
f 46 48 52
f 49 46 53
f 50 54 31
f 32 30 31
f 48 47 51
f 52 48 51
f 32 31 55
f 51 32 55
f 52 51 55
f 56 57 58
f 59 60 61
f 57 62 39
f 58 57 39
f 56 58 63
f 64 65 34
f 62 66 39
f 61 67 59
f 65 68 59
f 69 34 36
f 70 59 67
f 65 59 5
f 34 65 5
f 58 39 40
f 71 63 72
f 59 70 73
f 74 36 66
f 75 39 66
f 66 36 76
f 76 36 35
f 76 38 75
f 39 75 38
f 3 39 38
f 58 40 63
f 59 73 5
f 38 76 35
f 63 40 12
f 35 34 5
f 5 73 77
f 72 63 12
f 72 12 78
f 78 12 41
f 78 41 79
f 77 17 5
f 17 77 80
f 41 44 79
f 17 80 43
f 79 44 49
f 79 49 81
f 43 80 82
f 49 53 81
f 43 82 83
f 50 43 83
f 54 50 84
f 50 83 84
f 52 53 46
f 85 54 84
f 31 54 85
f 55 31 85
f 52 55 53
f 86 87 88
f 89 57 56
f 65 87 68
f 87 86 59
f 59 86 60
f 68 87 59
f 90 65 91
f 92 90 91
f 89 92 62
f 65 64 91
f 92 91 64
f 89 62 57
f 92 64 69
f 60 86 61
f 34 69 64
f 93 92 69
f 92 93 66
f 62 92 66
f 61 86 67
f 93 69 36
f 67 86 70
f 70 86 94
f 74 93 36
f 66 93 74
f 71 72 95
f 70 94 73
f 75 66 76
f 95 72 78
f 94 96 73
f 77 73 96
f 96 97 77
f 98 78 79
f 77 97 80
f 80 97 99
f 100 99 101
f 102 99 100
f 80 99 102
f 80 102 100
f 80 100 103
f 103 100 104
f 103 104 105
f 80 103 105
f 81 106 79
f 106 107 79
f 82 108 83
f 109 84 83
f 85 110 55
f 81 53 106
f 111 105 104
f 108 82 112
f 109 83 108
f 110 85 113
f 55 110 114
f 115 55 114
f 53 55 116
f 107 117 79
f 111 80 105
f 82 80 118
f 112 82 118
f 85 84 119
f 118 80 111
f 116 55 120
f 53 116 121
f 121 116 120
f 108 112 122
f 109 108 122
f 123 109 122
f 84 109 124
f 124 109 123
f 119 84 125
f 85 119 126
f 126 119 125
f 113 85 127
f 127 85 126
f 110 113 127
f 128 110 127
f 114 110 129
f 129 110 128
f 130 114 129
f 131 114 130
f 115 114 131
f 121 120 132
f 125 84 124
f 132 55 133
f 120 55 132
f 126 125 124
f 127 126 124
f 128 127 134
f 134 127 124
f 129 128 134
f 130 129 134
f 131 130 134
f 135 115 131
f 55 115 135
f 133 55 135
f 123 136 124
f 131 134 137
f 135 131 137
f 134 124 136
f 138 87 139
f 138 139 140
f 88 87 141
f 139 87 90
f 92 139 90
f 89 139 92
f 142 139 89
f 142 56 143
f 56 144 143
f 144 145 143
f 142 89 56
f 90 87 65
f 94 88 146
f 144 56 147
f 145 144 147
f 88 94 86
f 71 147 56
f 145 147 71
f 56 63 71
f 95 148 145
f 145 71 95
f 149 94 146
f 150 148 95
f 96 94 149
f 151 150 95
f 151 95 78
f 151 78 98
f 152 151 98
f 153 96 154
f 97 96 153
f 155 98 156
f 97 153 154
f 97 154 99
f 156 98 157
f 99 154 101
f 157 98 79
f 100 101 104
f 101 158 104
f 159 104 158
f 79 117 157
f 117 107 160
f 117 161 157
f 161 117 162
f 162 117 160
f 106 53 163
f 164 111 104
f 107 106 163
f 53 121 165
f 166 107 163
f 162 160 166
f 111 164 167
f 118 111 167
f 135 168 133
f 132 133 168
f 121 132 165
f 53 165 163
f 160 107 166
f 118 167 169
f 112 118 169
f 136 170 134
f 137 134 170
f 167 164 171
f 122 112 136
f 123 122 136
f 170 136 172
f 138 140 173
f 173 140 174
f 141 175 176
f 177 141 138
f 178 174 179
f 174 140 142
f 179 174 142
f 142 140 139
f 178 179 180
f 181 178 180
f 182 178 181
f 183 182 181
f 141 176 88
f 138 141 87
f 143 179 142
f 180 179 143
f 183 181 184
f 185 183 184
f 176 175 146
f 186 183 185
f 187 188 189
f 175 187 146
f 181 180 143
f 185 184 190
f 186 185 191
f 188 192 193
f 88 176 146
f 181 143 194
f 184 181 194
f 146 189 188
f 187 189 146
f 145 194 143
f 184 194 148
f 186 191 195
f 195 191 196
f 146 188 193
f 145 148 194
f 190 184 148
f 185 190 148
f 191 185 148
f 196 191 148
f 193 197 198
f 198 197 199
f 198 199 200
f 200 199 201
f 193 198 149
f 149 198 200
f 146 193 149
f 195 196 202
f 200 201 149
f 196 148 202
f 202 148 203
f 195 202 203
f 203 204 195
f 205 201 206
f 201 205 207
f 207 205 208
f 149 201 207
f 208 205 206
f 203 148 150
f 207 208 96
f 96 208 209
f 149 207 96
f 210 211 203
f 206 212 208
f 208 212 209
f 209 212 213
f 214 213 212
f 215 214 212
f 209 213 214
f 150 151 152
f 203 150 152
f 96 209 214
f 203 152 216
f 210 203 216
f 214 215 217
f 216 152 218
f 210 216 219
f 220 214 217
f 96 214 154
f 154 214 220
f 152 98 155
f 218 152 155
f 216 218 155
f 219 216 155
f 210 219 221
f 222 210 221
f 222 223 210
f 219 155 221
f 221 155 156
f 222 221 224
f 221 156 224
f 224 156 225
f 225 156 157
f 222 224 225
f 220 226 227
f 154 220 227
f 228 225 157
f 222 225 228
f 229 154 227
f 154 229 101
f 222 228 230
f 231 222 230
f 229 227 101
f 228 157 230
f 101 227 226
f 230 157 231
f 101 226 232
f 231 157 233
f 226 234 235
f 232 226 235
f 233 157 236
f 231 233 237
f 238 231 237
f 239 231 238
f 232 235 240
f 158 232 240
f 101 232 158
f 240 235 241
f 158 240 241
f 237 233 238
f 242 234 243
f 235 234 244
f 244 234 242
f 241 235 245
f 245 235 244
f 158 241 245
f 238 233 246
f 246 233 236
f 245 244 247
f 158 245 247
f 159 158 247
f 236 157 248
f 247 244 159
f 236 248 249
f 246 236 249
f 159 244 242
f 248 157 250
f 250 157 161
f 249 248 250
f 251 242 243
f 249 250 246
f 159 242 104
f 104 242 252
f 246 250 253
f 242 251 252
f 250 161 254
f 253 250 254
f 104 252 164
f 164 252 255
f 161 162 256
f 255 252 257
f 161 256 258
f 254 161 258
f 246 253 254
f 259 252 260
f 257 252 259
f 164 255 261
f 255 257 261
f 261 257 259
f 168 135 137
f 168 137 262
f 162 166 263
f 256 162 263
f 264 258 256
f 254 258 264
f 264 246 254
f 164 261 265
f 266 264 267
f 246 264 266
f 261 268 269
f 164 265 270
f 271 164 270
f 164 271 171
f 272 168 273
f 274 168 272
f 132 168 274
f 165 132 274
f 163 165 275
f 275 165 274
f 276 163 275
f 166 163 277
f 277 163 276
f 278 166 277
f 279 166 278
f 280 166 279
f 263 166 280
f 264 256 281
f 267 264 281
f 265 261 269
f 271 270 282
f 171 271 282
f 167 171 283
f 169 283 112
f 283 136 112
f 137 170 284
f 262 137 284
f 285 262 284
f 168 262 273
f 256 263 281
f 269 286 265
f 171 282 283
f 283 282 270
f 169 167 283
f 172 136 283
f 170 172 287
f 288 170 287
f 284 170 288
f 274 272 289
f 275 274 290
f 291 263 280
f 281 263 292
f 293 265 286
f 270 265 293
f 285 284 294
f 262 285 294
f 273 262 295
f 295 262 294
f 296 273 295
f 272 273 289
f 289 273 296
f 297 274 289
f 274 297 290
f 275 290 297
f 276 275 298
f 298 275 297
f 277 276 298
f 278 277 298
f 279 278 299
f 299 278 298
f 280 279 299
f 291 280 300
f 292 263 291
f 293 301 270
f 283 270 302
f 287 172 303
f 304 287 303
f 288 287 304
f 284 288 304
f 294 284 305
f 295 294 296
f 300 280 299
f 306 270 301
f 302 270 306
f 307 283 308
f 172 283 307
f 305 284 304
f 309 294 305
f 296 294 309
f 308 283 302
f 138 173 177
f 175 141 310
f 178 173 174
f 183 311 182
f 188 187 192
f 193 192 197
f 204 186 195
f 199 197 312
f 199 312 201
f 312 206 201
f 204 203 313
f 313 203 211
f 220 217 215
f 215 226 220
f 223 222 314
f 314 222 231
f 226 315 234
f 234 315 243
f 239 238 316
f 238 246 316
f 251 260 252
f 317 316 246
f 317 246 318
f 259 260 319
f 268 261 259
f 318 246 266
f 281 292 266
f 267 281 266
f 269 268 286
f 289 320 321
f 289 321 297
f 291 300 292
f 289 296 320
f 301 293 306
f 172 307 322
f 296 309 320
f 308 302 307
f 172 322 303
f 304 303 323
f 305 304 323
f 305 323 309
f 324 178 325
f 326 327 192
f 187 326 192
f 175 310 326
f 325 178 182
f 175 326 187
f 325 182 311
f 328 329 327
f 192 327 329
f 330 325 186
f 186 325 311
f 183 186 311
f 197 329 328
f 192 329 197
f 330 186 331
f 204 332 186
f 331 186 332
f 331 332 333
f 204 313 332
f 333 332 313
f 313 334 333
f 335 334 313
f 335 313 211
f 211 336 335
f 206 312 215
f 337 336 211
f 212 206 215
f 337 211 210
f 338 337 210
f 338 210 223
f 339 223 340
f 340 223 314
f 226 215 341
f 340 314 342
f 342 314 343
f 226 341 315
f 314 231 343
f 341 344 315
f 342 343 345
f 343 231 239
f 345 343 239
f 344 243 315
f 243 344 346
f 347 346 348
f 243 346 347
f 243 347 349
f 251 243 350
f 351 352 316
f 243 349 350
f 350 349 353
f 260 350 353
f 350 260 251
f 353 349 354
f 260 353 354
f 317 318 316
f 355 260 354
f 259 319 268
f 260 355 356
f 319 260 356
f 266 357 318
f 319 356 268
f 266 358 357
f 318 357 358
f 318 359 316
f 266 292 360
f 359 318 358
f 268 356 361
f 361 286 268
f 266 360 358
f 286 361 362
f 300 360 292
f 361 356 362
f 286 362 363
f 363 293 286
f 321 364 297
f 297 364 298
f 363 362 356
f 293 365 306
f 306 366 302
f 298 364 299
f 360 300 367
f 363 356 365
f 293 363 365
f 366 306 365
f 366 368 302
f 302 368 307
f 368 322 307
f 303 322 369
f 303 369 370
f 303 370 323
f 356 371 372
f 365 356 372
f 178 324 373
f 141 374 310
f 375 141 177
f 173 376 177
f 178 376 173
f 373 324 377
f 377 324 378
f 326 379 327
f 310 379 326
f 378 324 325
f 377 378 325
f 377 325 380
f 379 381 327
f 328 327 381
f 330 380 325
f 328 381 382
f 383 380 384
f 384 380 385
f 383 384 385
f 382 386 328
f 380 330 385
f 328 386 197
f 197 386 387
f 385 330 331
f 385 331 388
f 388 331 333
f 197 387 312
f 388 333 334
f 389 388 390
f 388 334 390
f 391 387 392
f 393 334 335
f 390 334 393
f 387 391 312
f 390 393 394
f 389 390 395
f 395 390 394
f 312 391 396
f 397 393 335
f 394 393 397
f 398 394 397
f 395 394 398
f 397 335 336
f 398 397 336
f 395 398 399
f 389 395 399
f 396 391 400
f 396 215 312
f 389 399 401
f 398 336 337
f 398 337 399
f 402 396 400
f 399 337 403
f 404 402 400
f 403 337 338
f 405 399 403
f 401 399 405
f 215 396 402
f 405 403 406
f 401 405 406
f 403 338 223
f 406 403 407
f 407 403 223
f 401 406 407
f 404 408 402
f 402 408 409
f 407 223 410
f 409 408 411
f 411 408 412
f 413 409 411
f 402 409 413
f 215 402 413
f 410 223 339
f 411 412 413
f 407 410 339
f 401 407 414
f 341 215 413
f 407 339 414
f 415 412 408
f 413 412 416
f 416 412 415
f 341 413 416
f 414 339 340
f 416 415 417
f 414 340 342
f 341 416 417
f 415 418 417
f 417 418 419
f 341 417 419
f 414 342 345
f 341 419 344
f 414 345 420
f 420 345 239
f 421 420 239
f 421 239 422
f 423 419 424
f 425 419 423
f 344 419 425
f 426 427 420
f 344 425 346
f 421 422 426
f 420 421 426
f 426 422 239
f 352 427 426
f 426 239 316
f 352 426 316
f 425 423 346
f 346 423 428
f 424 428 423
f 351 427 352
f 348 346 428
f 348 428 429
f 347 429 349
f 348 429 347
f 429 428 349
f 430 428 431
f 428 430 432
f 354 428 432
f 349 428 354
f 432 430 433
f 354 432 433
f 351 316 434
f 430 431 435
f 435 431 436
f 433 430 435
f 354 433 435
f 351 434 437
f 437 438 351
f 355 354 435
f 434 316 439
f 359 439 316
f 355 435 440
f 358 441 359
f 440 435 442
f 442 435 436
f 355 440 442
f 443 355 442
f 355 443 356
f 439 359 444
f 439 437 434
f 443 442 445
f 356 443 446
f 444 359 441
f 445 442 447
f 443 445 447
f 323 448 309
f 449 367 300
f 450 358 360
f 441 358 451
f 442 436 452
f 447 442 452
f 443 447 446
f 446 447 453
f 356 446 371
f 321 320 454
f 364 321 454
f 360 367 450
f 451 358 450
f 452 436 455
f 444 441 456
f 452 455 457
f 447 452 457
f 458 446 453
f 371 446 458
f 309 448 459
f 320 309 459
f 454 320 459
f 299 364 460
f 300 299 449
f 449 299 460
f 367 449 461
f 450 367 461
f 441 451 456
f 455 462 457
f 453 447 457
f 371 458 463
f 372 371 463
f 322 464 465
f 369 322 465
f 370 369 465
f 466 370 465
f 323 370 466
f 460 364 467
f 372 463 468
f 368 366 469
f 322 368 469
f 470 465 464
f 466 465 470
f 448 466 470
f 323 466 448
f 457 462 453
f 458 453 463
f 471 372 468
f 472 372 471
f 473 372 472
f 365 372 473
f 469 365 473
f 366 365 469
f 464 322 469
f 470 464 474
f 448 470 474
f 475 469 476
f 464 469 475
f 474 464 475
f 471 468 477
f 477 468 463
f 472 471 477
f 473 472 477
f 177 376 375
f 379 374 478
f 310 374 379
f 381 379 479
f 381 479 382
f 385 388 389
f 400 391 392
f 392 404 400
f 404 415 408
f 401 414 480
f 414 420 480
f 420 427 480
f 428 424 481
f 428 481 431
f 431 481 436
f 481 482 436
f 436 482 483
f 483 455 436
f 484 455 483
f 467 364 454
f 467 454 485
f 460 467 485
f 448 474 459
f 449 460 486
f 475 476 474
f 463 453 487
f 453 488 487
f 489 463 487
f 489 490 491
f 489 491 492
f 463 489 492
f 493 463 492
f 463 493 477
f 469 473 494
f 141 375 374
f 495 377 496
f 377 495 373
f 478 497 379
f 178 495 376
f 373 495 178
f 379 497 479
f 498 377 380
f 383 498 380
f 499 498 383
f 382 479 500
f 382 500 386
f 501 383 502
f 503 501 502
f 504 505 500
f 500 505 387
f 506 503 502
f 385 507 383
f 502 383 507
f 506 502 507
f 387 505 508
f 500 387 386
f 505 509 508
f 385 389 507
f 506 507 389
f 387 508 510
f 511 506 389
f 511 512 506
f 511 513 512
f 387 510 392
f 511 389 401
f 510 514 392
f 515 513 511
f 392 514 404
f 515 511 401
f 404 514 516
f 516 514 517
f 515 401 480
f 516 517 518
f 404 516 518
f 519 518 517
f 404 518 415
f 519 424 518
f 518 424 520
f 521 518 520
f 415 518 521
f 415 521 418
f 520 424 522
f 480 523 515
f 521 520 522
f 418 521 522
f 418 522 424
f 418 424 419
f 524 523 480
f 524 480 427
f 525 524 427
f 526 525 427
f 427 351 526
f 351 438 526
f 526 438 527
f 438 437 527
f 482 481 528
f 527 437 456
f 456 437 439
f 456 529 527
f 439 444 456
f 530 482 528
f 531 482 530
f 483 482 531
f 483 531 484
f 484 531 532
f 455 484 462
f 533 456 534
f 531 530 532
f 484 532 535
f 462 484 535
f 450 456 451
f 450 534 456
f 462 488 453
f 536 537 474
f 474 537 459
f 454 459 538
f 538 459 539
f 454 538 540
f 460 485 486
f 449 486 461
f 461 541 450
f 534 450 541
f 535 532 542
f 488 462 535
f 459 537 543
f 544 459 543
f 545 538 539
f 540 538 545
f 454 540 546
f 546 540 545
f 485 454 546
f 547 485 546
f 486 485 547
f 461 486 548
f 541 461 548
f 533 534 541
f 532 549 542
f 535 542 549
f 488 535 550
f 474 476 551
f 552 474 551
f 553 474 552
f 539 459 544
f 554 539 544
f 555 539 554
f 545 539 546
f 546 539 555
f 486 547 556
f 550 535 557
f 488 550 558
f 487 488 558
f 487 490 489
f 553 552 559
f 536 474 553
f 560 536 553
f 555 554 544
f 486 556 548
f 557 535 561
f 561 535 549
f 550 557 558
f 558 557 561
f 476 469 562
f 552 551 559
f 553 559 560
f 537 536 563
f 543 537 563
f 561 549 564
f 561 564 558
f 491 490 565
f 492 491 565
f 493 492 565
f 493 566 477
f 566 567 477
f 477 567 473
f 567 494 473
f 494 568 469
f 562 469 569
f 551 476 562
f 560 559 551
f 570 558 564
f 487 558 571
f 572 487 571
f 490 487 572
f 569 469 573
f 560 551 574
f 563 536 543
f 571 558 570
f 575 490 572
f 565 490 575
f 566 493 576
f 562 569 577
f 577 569 573
f 551 562 577
f 574 551 577
f 572 571 570
f 493 565 575
f 576 493 575
f 494 567 578
f 578 567 579
f 568 494 580
f 580 494 578
f 469 568 581
f 581 568 580
f 573 469 581
f 577 573 582
f 572 570 583
f 576 575 584
f 585 576 584
f 566 576 586
f 586 576 585
f 587 566 586
f 588 566 587
f 567 566 588
f 579 567 588
f 581 580 578
f 573 581 578
f 575 572 583
f 578 579 588
f 589 573 578
f 589 582 573
f 583 590 575
f 584 575 591
f 585 584 592
f 592 584 591
f 586 585 592
f 587 586 592
f 593 578 588
f 594 595 578
f 594 578 593
f 589 578 595
f 596 589 595
f 591 575 590
f 592 591 590
f 587 592 590
f 588 587 590
f 597 588 590
f 593 588 597
f 598 593 597
f 594 593 598
f 599 590 600
f 601 590 599
f 597 590 601
f 376 495 375
f 503 383 501
f 504 500 509
f 509 510 508
f 506 512 513
f 602 519 514
f 514 519 517
f 526 527 529
f 528 603 530
f 603 532 530
f 547 546 556
f 604 574 605
f 560 574 604
f 560 604 606
f 536 560 606
f 536 606 543
f 607 608 609
f 610 582 608
f 611 582 610
f 577 605 574
f 570 564 612
f 570 612 583
f 608 613 609
f 582 613 608
f 605 582 611
f 577 582 605
f 613 614 609
f 614 597 609
f 582 589 615
f 582 615 613
f 616 617 618
f 616 609 597
f 618 609 616
f 614 598 597
f 619 598 614
f 595 594 619
f 595 619 614
f 596 595 614
f 613 596 614
f 615 596 613
f 589 596 615
f 600 620 617
f 617 616 599
f 597 601 616
f 601 599 616
f 594 598 619
f 599 600 617
f 375 621 374
f 375 622 621
f 495 623 375
f 377 624 496
f 498 625 377
f 626 498 499
f 499 383 503
f 505 504 509
f 506 627 503
f 510 602 514
f 628 515 523
f 523 524 525
f 481 629 528
f 529 630 631
f 456 630 529
f 456 533 630
f 532 564 549
f 605 632 633
f 604 605 633
f 610 608 634
f 610 634 611
f 632 605 611
f 543 606 635
f 608 607 634
f 609 636 637
f 637 607 609
f 590 583 638
f 590 638 620
f 600 590 620
f 617 620 618
f 622 623 639
f 623 640 639
f 639 640 641
f 642 374 621
f 643 640 623
f 641 640 643
f 644 641 643
f 496 641 644
f 496 624 645
f 646 478 642
f 623 622 375
f 644 643 623
f 374 642 478
f 644 623 495
f 496 644 495
f 377 625 624
f 497 646 479
f 478 646 497
f 498 626 625
f 479 646 500
f 499 647 626
f 646 648 500
f 627 647 499
f 649 650 648
f 647 627 651
f 500 648 509
f 503 627 499
f 648 650 509
f 650 652 653
f 506 654 627
f 509 653 510
f 509 650 653
f 506 513 654
f 655 654 513
f 655 513 656
f 510 653 602
f 513 515 656
f 657 658 656
f 659 657 656
f 519 602 660
f 656 515 661
f 661 515 628
f 661 659 656
f 662 519 660
f 628 663 661
f 519 662 664
f 519 665 424
f 665 519 664
f 523 666 628
f 666 523 525
f 525 667 666
f 668 667 525
f 669 668 525
f 669 525 526
f 670 424 665
f 424 670 481
f 670 629 481
f 603 629 670
f 526 529 671
f 672 671 529
f 528 629 603
f 529 631 672
f 603 673 532
f 674 631 630
f 533 675 630
f 675 674 630
f 541 675 533
f 532 673 612
f 556 676 548
f 532 612 564
f 544 677 555
f 555 677 546
f 678 546 677
f 556 546 678
f 633 632 679
f 543 680 544
f 544 680 677
f 678 677 681
f 678 682 683
f 678 683 556
f 676 556 683
f 611 679 632
f 604 684 606
f 684 685 606
f 685 635 606
f 635 686 543
f 543 686 680
f 687 548 676
f 673 688 612
f 634 607 689
f 611 634 690
f 684 604 691
f 635 685 686
f 686 685 684
f 692 612 688
f 612 692 583
f 637 689 607
f 637 690 689
f 634 689 690
f 691 611 690
f 679 611 691
f 633 679 691
f 604 633 691
f 684 691 686
f 693 680 686
f 690 637 636
f 691 690 694
f 695 691 694
f 686 691 695
f 696 686 695
f 609 697 636
f 690 636 697
f 697 609 618
f 583 692 638
f 618 620 697
f 496 698 641
f 496 699 698
f 496 645 699
f 624 625 645
f 642 700 646
f 649 648 646
f 650 649 652
f 654 655 627
f 656 658 655
f 661 663 701
f 663 702 701
f 662 703 664
f 703 704 664
f 663 628 667
f 664 704 665
f 628 666 667
f 603 705 673
f 705 706 673
f 675 541 707
f 681 682 678
f 541 548 687
f 541 687 707
f 683 682 681
f 683 681 676
f 706 688 673
f 696 708 693
f 677 680 708
f 680 693 708
f 688 706 692
f 693 686 696
f 690 697 694
f 697 620 709
f 641 622 639
f 645 698 699
f 625 710 645
f 700 642 711
f 647 712 626
f 713 712 647
f 647 651 713
f 651 627 713
f 653 652 714
f 653 714 602
f 714 715 602
f 627 655 716
f 658 657 655
f 655 657 716
f 660 602 715
f 657 659 716
f 659 661 716
f 661 701 717
f 716 661 717
f 717 701 702
f 702 663 717
f 718 703 662
f 719 703 718
f 663 667 717
f 720 717 668
f 717 667 668
f 704 703 719
f 665 704 721
f 722 665 721
f 665 722 670
f 671 723 669
f 669 526 671
f 672 723 671
f 672 631 724
f 603 725 705
f 674 726 724
f 674 724 631
f 726 675 727
f 674 675 726
f 675 707 727
f 728 729 677
f 681 677 729
f 681 730 676
f 687 731 707
f 732 677 708
f 687 676 730
f 696 732 708
f 732 696 733
f 692 706 734
f 692 734 638
f 709 620 735
f 645 710 698
f 642 621 711
f 700 711 736
f 646 736 737
f 700 736 646
f 625 626 738
f 739 737 740
f 737 739 646
f 626 712 741
f 739 649 646
f 740 649 739
f 742 743 649
f 713 627 744
f 649 743 652
f 743 714 652
f 745 627 746
f 627 716 746
f 715 662 660
f 716 717 746
f 746 717 747
f 662 719 718
f 719 721 704
f 721 748 722
f 720 668 749
f 668 669 749
f 748 750 722
f 722 750 670
f 669 723 749
f 670 725 603
f 723 672 751
f 672 752 753
f 752 672 724
f 725 754 705
f 754 755 705
f 755 706 705
f 706 755 756
f 728 757 729
f 681 729 730
f 707 731 727
f 687 730 758
f 687 758 731
f 732 759 677
f 706 756 734
f 696 760 733
f 695 694 760
f 696 695 760
f 620 638 734
f 620 761 735
f 622 762 621
f 626 741 738
f 740 742 649
f 742 763 743
f 764 744 627
f 743 763 714
f 627 745 764
f 715 714 765
f 715 765 766
f 715 766 662
f 717 720 747
f 747 720 767
f 768 720 749
f 769 749 770
f 749 723 770
f 670 771 725
f 771 772 725
f 751 672 753
f 726 773 724
f 773 752 724
f 729 757 774
f 731 775 727
f 732 733 776
f 759 732 776
f 677 759 728
f 620 734 761
f 709 735 761
f 709 761 777
f 622 778 779
f 778 698 780
f 780 698 781
f 762 779 782
f 641 778 622
f 698 778 641
f 783 710 784
f 779 762 622
f 783 698 710
f 784 710 625
f 784 625 785
f 785 738 786
f 785 625 738
f 787 788 738
f 789 736 711
f 790 789 711
f 738 741 787
f 789 791 736
f 741 792 787
f 737 736 740
f 741 793 792
f 741 712 793
f 740 736 791
f 794 792 793
f 712 794 793
f 795 792 794
f 712 795 794
f 712 713 795
f 795 796 792
f 713 796 795
f 740 763 742
f 791 797 740
f 796 798 792
f 713 744 796
f 797 763 740
f 799 792 798
f 744 800 796
f 714 763 797
f 800 798 796
f 744 801 800
f 764 801 744
f 801 798 800
f 764 745 801
f 745 798 801
f 745 802 798
f 746 802 745
f 714 803 765
f 746 804 802
f 803 805 765
f 766 765 805
f 766 805 662
f 803 806 805
f 807 805 806
f 805 719 662
f 805 807 719
f 808 809 747
f 767 808 747
f 719 807 721
f 720 768 767
f 810 811 768
f 749 810 768
f 812 811 810
f 769 770 813
f 769 813 749
f 749 813 810
f 723 812 810
f 813 723 810
f 813 770 723
f 814 812 723
f 670 750 771
f 750 815 771
f 771 815 772
f 751 814 723
f 754 725 772
f 753 752 751
f 816 754 772
f 816 755 754
f 817 818 819
f 818 820 775
f 821 727 822
f 726 727 821
f 819 823 817
f 824 823 819
f 818 824 819
f 775 758 818
f 727 775 820
f 822 727 820
f 816 825 755
f 826 759 827
f 774 759 826
f 729 774 817
f 730 729 817
f 823 730 817
f 730 823 828
f 828 823 824
f 818 730 824
f 730 828 824
f 758 730 818
f 829 830 827
f 759 776 827
f 774 728 759
f 757 728 774
f 775 731 758
f 756 755 825
f 831 825 816
f 776 733 827
f 756 825 734
f 832 833 834
f 832 829 833
f 827 760 829
f 733 760 827
f 835 734 825
f 834 760 694
f 833 760 834
f 829 760 833
f 734 835 836
f 761 734 836
f 777 694 697
f 837 694 777
f 697 709 777
f 785 838 784
f 785 786 838
f 786 738 788
f 787 786 788
f 799 787 792
f 802 799 798
f 797 839 714
f 839 840 714
f 714 841 803
f 747 842 804
f 804 746 747
f 747 809 842
f 809 808 842
f 842 808 843
f 807 748 721
f 843 808 811
f 808 767 811
f 767 768 811
f 751 844 814
f 844 845 846
f 751 845 844
f 751 752 845
f 752 773 845
f 773 846 845
f 847 848 849
f 848 850 849
f 851 848 847
f 773 726 846
f 851 852 853
f 726 853 846
f 850 854 849
f 848 817 850
f 818 848 851
f 821 820 853
f 726 821 853
f 817 774 854
f 850 817 854
f 818 817 848
f 820 818 851
f 853 820 851
f 821 822 820
f 854 827 830
f 854 826 827
f 774 826 854
f 830 829 855
f 831 816 856
f 857 831 856
f 858 857 856
f 855 829 832
f 859 831 857
f 831 859 825
f 825 859 857
f 860 825 857
f 858 860 857
f 861 862 863
f 855 834 863
f 832 834 855
f 864 865 836
f 866 862 861
f 694 861 863
f 834 694 863
f 825 860 835
f 836 835 860
f 694 866 861
f 867 836 865
f 761 836 867
f 761 837 777
f 866 694 868
f 780 869 778
f 783 781 698
f 762 782 870
f 784 781 783
f 711 621 871
f 871 621 762
f 711 871 790
f 791 789 872
f 790 872 789
f 787 799 873
f 874 791 872
f 791 875 797
f 874 876 791
f 876 875 791
f 876 877 875
f 797 875 839
f 877 876 878
f 802 879 799
f 877 839 875
f 840 880 714
f 880 841 714
f 880 803 841
f 803 881 806
f 880 881 803
f 802 882 879
f 802 842 882
f 802 804 842
f 842 883 882
f 842 884 883
f 806 881 807
f 884 885 883
f 881 886 807
f 842 843 884
f 884 887 885
f 843 887 884
f 843 888 887
f 843 889 888
f 890 889 843
f 811 890 843
f 890 891 889
f 890 892 891
f 812 892 890
f 890 811 812
f 892 812 891
f 893 894 891
f 891 814 893
f 891 812 814
f 895 750 896
f 893 897 894
f 750 895 815
f 897 844 894
f 893 814 897
f 814 844 897
f 895 898 815
f 899 894 844
f 895 900 898
f 901 899 844
f 815 898 772
f 900 902 898
f 902 772 898
f 903 904 905
f 903 905 906
f 907 772 902
f 908 905 909
f 909 905 904
f 910 849 906
f 911 849 910
f 912 849 911
f 913 901 844
f 906 849 903
f 912 914 849
f 907 915 772
f 916 915 907
f 917 918 919
f 917 919 920
f 919 921 920
f 904 922 909
f 923 772 915
f 923 915 916
f 917 920 918
f 908 854 921
f 909 922 908
f 849 922 904
f 903 849 904
f 844 846 913
f 772 923 816
f 924 816 923
f 921 830 920
f 914 851 849
f 925 851 914
f 924 926 816
f 920 927 918
f 921 854 830
f 852 851 925
f 928 852 925
f 920 830 927
f 922 854 908
f 849 854 922
f 851 847 849
f 846 853 913
f 929 816 926
f 853 852 928
f 930 853 928
f 853 930 913
f 929 931 816
f 932 816 931
f 933 856 932
f 933 934 856
f 934 935 856
f 927 855 936
f 932 856 816
f 855 937 936
f 830 855 927
f 938 856 935
f 858 856 938
f 858 938 939
f 940 858 939
f 864 941 942
f 864 943 944
f 943 945 944
f 860 858 940
f 941 860 940
f 864 860 941
f 946 944 945
f 946 947 944
f 937 863 862
f 855 863 937
f 836 860 864
f 944 865 864
f 947 865 944
f 948 949 950
f 947 949 948
f 867 865 947
f 948 867 947
f 951 948 950
f 952 862 866
f 951 867 948
f 837 868 694
f 868 953 866
f 953 952 866
f 867 951 761
f 761 951 954
f 761 954 837
f 953 868 955
f 868 837 956
f 957 868 956
f 957 955 868
f 958 953 955
f 955 957 956
f 779 959 782
f 778 959 779
f 869 959 778
f 781 869 780
f 782 960 870
f 784 961 781
f 781 961 962
f 961 784 963
f 784 838 963
f 762 870 964
f 963 838 873
f 838 786 873
f 961 963 965
f 873 965 963
f 786 787 873
f 873 966 965
f 967 965 966
f 966 873 967
f 968 967 873
f 790 969 872
f 873 799 968
f 872 969 970
f 967 968 971
f 968 972 971
f 799 972 968
f 971 972 973
f 799 879 972
f 970 874 872
f 972 879 973
f 974 876 874
f 840 839 975
f 976 840 975
f 977 840 976
f 840 977 880
f 879 882 978
f 880 977 881
f 883 979 882
f 886 881 980
f 883 885 979
f 979 885 981
f 885 889 981
f 885 887 889
f 807 982 748
f 983 984 981
f 889 983 981
f 887 888 889
f 889 985 983
f 986 985 889
f 987 889 891
f 891 988 987
f 750 989 896
f 891 894 988
f 988 894 899
f 900 895 902
f 905 990 906
f 991 899 992
f 993 994 908
f 994 905 908
f 911 910 990
f 990 995 996
f 997 902 895
f 993 908 921
f 990 910 906
f 912 911 990
f 899 913 992
f 899 901 913
f 907 902 997
f 919 993 921
f 914 912 990
f 996 925 990
f 907 997 998
f 918 999 919
f 992 925 996
f 928 925 992
f 992 930 928
f 913 930 992
f 1000 998 997
f 1001 1000 997
f 907 998 916
f 916 998 1000
f 927 999 918
f 925 914 990
f 916 1000 923
f 1002 1000 1001
f 1000 924 923
f 1000 1002 1003
f 924 1000 1003
f 924 1004 926
f 924 1003 1004
f 927 936 1005
f 1003 1002 1006
f 1007 1003 1006
f 1004 1003 1007
f 926 1004 1008
f 1004 1007 1008
f 926 1008 929
f 1002 1001 1006
f 1007 1006 1009
f 1009 1006 1001
f 929 1008 1007
f 929 1007 931
f 1010 1011 1001
f 1009 1001 1011
f 931 1007 1009
f 1012 931 1009
f 932 1012 933
f 932 931 1012
f 933 1012 934
f 1011 1010 1013
f 1009 1011 1014
f 1014 1011 1013
f 1015 1009 1014
f 1012 1009 1015
f 934 1012 1015
f 1016 1017 1013
f 1014 1013 1018
f 1018 1013 1017
f 1015 1014 1019
f 1019 1014 1018
f 934 1015 935
f 935 1015 1019
f 936 1020 1021
f 1022 1017 1016
f 1018 1017 1022
f 935 1019 1023
f 1024 935 1023
f 938 935 1024
f 1019 1018 1023
f 1023 1018 1022
f 938 1024 939
f 939 1025 940
f 1024 1025 939
f 940 1025 941
f 941 1025 942
f 1026 1027 1022
f 1023 1022 1027
f 1028 1023 1029
f 1030 1023 1028
f 1024 1023 1030
f 942 1025 864
f 864 1031 943
f 943 1031 945
f 1032 1033 1021
f 1034 1032 1021
f 1029 1023 1027
f 1035 1030 1036
f 1024 1030 1037
f 1037 1030 1035
f 1025 1024 1038
f 1038 1024 1037
f 1039 1025 1038
f 864 1025 1039
f 945 1031 946
f 1040 1041 1042
f 862 1020 936
f 937 862 936
f 1027 1026 1043
f 1043 1044 1045
f 1043 1045 1027
f 1029 1027 1046
f 1046 1027 1045
f 1028 1029 1047
f 1047 1029 1046
f 1030 1028 1048
f 1048 1028 1047
f 1036 1030 1048
f 1037 1035 1049
f 1031 864 1050
f 1050 864 1039
f 946 1031 1050
f 947 946 1051
f 946 1050 1051
f 1051 949 947
f 1052 1053 1054
f 1021 1052 1054
f 1020 1034 1021
f 1045 1044 1055
f 1055 1056 1045
f 1045 1056 1046
f 1047 1046 1056
f 1036 1048 1047
f 1049 1035 1036
f 1037 1049 1038
f 1051 1050 1057
f 949 1051 950
f 1058 951 950
f 1058 1059 951
f 1042 954 1040
f 1053 1042 1054
f 1021 1060 1052
f 1033 1060 1021
f 1032 1061 1033
f 1020 952 1034
f 862 952 1020
f 1062 1063 1064
f 1062 1064 1056
f 1056 1064 1047
f 1065 1047 1064
f 1036 1047 1065
f 1049 1036 1066
f 1038 1049 1067
f 1067 1049 1066
f 1039 1038 1067
f 1050 1039 1068
f 1068 1039 1067
f 1069 1070 1057
f 1069 1057 1068
f 1068 1057 1050
f 1051 1057 1070
f 950 1051 1070
f 1058 950 1070
f 1040 954 1059
f 954 951 1059
f 1033 1061 1060
f 1034 952 1032
f 952 1061 1032
f 1064 1063 1065
f 1071 1036 1065
f 1066 1036 1071
f 1072 1067 1066
f 1068 1067 1072
f 1069 1068 1072
f 1053 1073 1042
f 1052 1073 1053
f 1060 1073 1052
f 953 958 952
f 952 958 1061
f 1066 1071 1074
f 1075 1066 1074
f 1072 1066 1075
f 1042 837 954
f 1073 837 1042
f 1060 955 1073
f 958 955 1060
f 1061 958 1060
f 956 837 1073
f 955 956 1073
f 869 1076 959
f 781 1077 869
f 869 1077 1076
f 781 962 1077
f 870 960 964
f 961 1078 962
f 1078 1079 962
f 1080 1078 961
f 961 965 1080
f 965 1081 1080
f 1081 1082 1080
f 965 967 1081
f 967 1082 1081
f 967 971 1082
f 973 1082 971
f 879 1082 973
f 1083 974 874
f 876 974 878
f 974 1084 878
f 877 878 1084
f 839 877 1084
f 839 1084 975
f 978 882 1085
f 881 977 1086
f 1086 980 881
f 882 1087 1085
f 1088 1085 1087
f 882 1088 1087
f 882 979 1088
f 979 1089 1088
f 979 981 1089
f 1089 981 1088
f 981 1090 1088
f 1091 1090 981
f 984 1091 981
f 984 983 986
f 984 986 1091
f 985 986 983
f 1092 1093 1091
f 986 1092 1091
f 989 750 748
f 889 987 986
f 1094 1092 986
f 987 1094 986
f 1094 987 1092
f 987 1095 1092
f 1096 1095 987
f 987 988 1096
f 991 1097 1092
f 1095 991 1092
f 1097 1098 1099
f 988 899 1095
f 1096 988 1095
f 895 896 1100
f 1098 1097 1101
f 1102 1101 1097
f 992 1102 1097
f 899 991 1095
f 1100 997 895
f 905 1103 990
f 995 990 1098
f 990 1104 1098
f 1098 1101 995
f 1102 995 1101
f 991 992 1097
f 1100 1105 997
f 992 996 995
f 1102 992 995
f 1106 1105 1100
f 1106 997 1105
f 1106 1107 997
f 1108 1107 1106
f 997 1109 1001
f 1107 1109 997
f 1108 1110 1107
f 1110 1108 1111
f 1112 1113 1114
f 1113 1115 1114
f 1111 1116 1110
f 1117 1118 1111
f 1119 1117 1111
f 1113 1119 1111
f 1120 1112 1114
f 1121 1120 1114
f 1115 1121 1114
f 927 1005 999
f 1107 1122 1109
f 1110 1122 1107
f 1116 1123 1110
f 1113 1112 1119
f 1124 1125 1126
f 1127 1001 1109
f 1122 1127 1109
f 1123 1127 1122
f 1110 1123 1122
f 1118 1116 1111
f 936 1125 1005
f 1128 1001 1127
f 1123 1128 1127
f 1129 1128 1123
f 1116 1129 1123
f 1130 1116 1118
f 1117 1131 1118
f 1119 1131 1117
f 1126 1132 1115
f 1001 1128 1010
f 1133 1010 1128
f 1134 1133 1128
f 1129 1134 1128
f 1116 1134 1129
f 1131 1130 1118
f 1112 1131 1119
f 1121 1041 1120
f 1115 1132 1121
f 1126 936 1132
f 1125 936 1126
f 1116 1135 1134
f 1120 1136 1112
f 1041 1136 1120
f 1121 1132 1041
f 1013 1010 1137
f 1137 1010 1133
f 1134 1137 1133
f 1135 1137 1134
f 1130 1135 1116
f 1138 1131 1112
f 1112 1136 1138
f 936 1021 1132
f 1013 1137 1016
f 1139 1016 1137
f 1135 1139 1137
f 1131 1140 1130
f 1021 1054 1132
f 1022 1016 1139
f 1141 1139 1135
f 1142 1141 1135
f 1130 1142 1135
f 1131 1138 1140
f 1022 1139 1026
f 1143 1026 1139
f 1141 1143 1139
f 1142 1144 1141
f 1130 1145 1142
f 1054 1042 1041
f 1132 1054 1041
f 1143 1146 1026
f 1144 1143 1141
f 1142 1145 1144
f 1140 1147 1130
f 1136 1040 1138
f 1026 1146 1043
f 1044 1043 1146
f 1044 1146 1055
f 1055 1146 1143
f 1148 1055 1143
f 1144 1149 1143
f 1149 1148 1143
f 1150 1149 1144
f 1145 1150 1144
f 1140 1059 1147
f 1138 1059 1140
f 1041 1040 1136
f 1056 1055 1151
f 1151 1055 1148
f 1149 1150 1148
f 1150 1151 1148
f 1147 1145 1130
f 1058 1147 1059
f 1040 1059 1138
f 1056 1151 1062
f 1063 1062 1151
f 1150 1152 1151
f 1152 1063 1151
f 1071 1152 1150
f 1145 1153 1150
f 1153 1071 1150
f 1154 1153 1145
f 1147 1069 1145
f 1069 1155 1145
f 1070 1069 1147
f 1058 1070 1147
f 1152 1065 1063
f 1071 1065 1152
f 1156 1071 1153
f 1154 1156 1153
f 1075 1154 1145
f 1072 1075 1155
f 1155 1075 1145
f 1069 1072 1155
f 1071 1156 1074
f 1154 1074 1156
f 1075 1074 1154
f 1157 959 1158
f 1158 959 1159
f 1076 1077 1160
f 1160 1077 1161
f 1161 1077 1162
f 1163 1164 1157
f 1164 960 1157
f 959 1157 960
f 1076 1165 959
f 1162 1077 1166
f 959 960 782
f 962 1166 1077
f 964 1164 1167
f 960 1164 964
f 1168 1166 1169
f 1166 962 1169
f 1169 962 1079
f 1167 871 964
f 964 871 762
f 1168 1169 1170
f 1079 1170 1169
f 1078 1080 1079
f 1170 1079 1171
f 1172 1173 790
f 871 1172 790
f 1079 1174 1171
f 1174 1175 1171
f 1080 1174 1079
f 1173 1176 790
f 1080 1082 1174
f 790 1176 969
f 1174 1177 1175
f 1082 1177 1174
f 1083 970 1178
f 970 1083 874
f 1179 1177 1082
f 1179 1180 1177
f 1181 1083 1178
f 1182 1180 1179
f 1083 1181 974
f 1082 879 1179
f 1179 1183 1182
f 1179 879 1183
f 1084 974 1181
f 1184 975 1084
f 1184 1084 1181
f 1183 978 1182
f 1183 879 978
f 1185 1182 978
f 975 1186 976
f 975 1184 1187
f 1188 1185 978
f 976 1186 977
f 1085 1188 978
f 1187 1186 975
f 1085 1189 1188
f 1187 977 1186
f 1187 1086 977
f 1085 1190 1189
f 1187 980 1086
f 1190 1085 1088
f 980 1191 886
f 980 1192 1191
f 982 807 886
f 982 886 1193
f 1191 1193 886
f 1193 1194 748
f 982 1193 748
f 1191 1195 1193
f 1192 1195 1191
f 1090 1091 1196
f 748 1194 1197
f 1195 1194 1193
f 1195 1198 1194
f 1192 1198 1195
f 748 1197 989
f 1194 1199 1197
f 1198 1199 1194
f 1199 989 1197
f 1192 1199 1198
f 1091 1200 1196
f 1091 1093 1200
f 1201 1199 1192
f 1093 1092 1202
f 1199 1201 989
f 1201 896 989
f 1093 1099 1200
f 1099 1098 1200
f 1202 1099 1093
f 1201 1203 896
f 1202 1092 1099
f 1204 1200 1098
f 1092 1097 1099
f 1205 994 1206
f 1207 1208 1206
f 1200 1208 1207
f 1203 1100 896
f 1209 1205 1206
f 1210 1209 1206
f 1208 1210 1206
f 1200 1104 1208
f 1204 1104 1200
f 1211 1100 1203
f 1212 1210 1208
f 1104 1212 1208
f 1210 1205 1209
f 1212 1103 1210
f 1104 1103 1212
f 990 1103 1104
f 1204 1098 1104
f 1213 1214 1215
f 1215 1214 1216
f 1216 1214 1005
f 905 994 1205
f 1210 905 1205
f 1103 905 1210
f 1217 1218 1211
f 1215 1219 1213
f 1216 1220 1215
f 1220 1219 1215
f 1221 1220 1216
f 1005 1221 1216
f 993 999 1214
f 1211 1106 1100
f 1218 1106 1211
f 1214 999 1005
f 1222 1218 1217
f 1124 1213 1219
f 1218 1108 1106
f 1222 1223 1218
f 1223 1111 1218
f 1223 1224 1225
f 1220 1226 1219
f 1226 1227 1219
f 1221 1226 1220
f 1005 1226 1221
f 993 919 999
f 1111 1108 1218
f 1225 1111 1223
f 1111 1225 1113
f 1113 1228 1115
f 1124 1115 1228
f 1126 1115 1124
f 1229 1124 1219
f 1230 1229 1219
f 1227 1230 1219
f 1230 1125 1229
f 1227 1125 1230
f 1229 1125 1124
f 1226 1125 1227
f 1005 1125 1226
f 1076 1160 1231
f 1160 1161 1162
f 1163 1157 1232
f 1232 1157 1158
f 1165 1159 959
f 1231 1233 1076
f 1234 1233 1231
f 1160 1234 1231
f 1160 1162 1166
f 1167 1164 1232
f 1235 1167 1232
f 1164 1163 1232
f 1158 1236 1232
f 1236 1237 1232
f 1238 1239 1158
f 1159 1238 1158
f 1233 1240 1076
f 1241 1234 1160
f 1166 1242 1160
f 1235 1243 1167
f 1237 1244 1232
f 1245 1158 1239
f 1245 1236 1158
f 1241 1246 1234
f 1247 1241 1160
f 1242 1247 1160
f 1166 1248 1242
f 1249 871 1167
f 1232 1243 1235
f 1250 1243 1232
f 1251 1250 1232
f 1251 1244 1250
f 1251 1232 1244
f 1237 1250 1244
f 1241 1247 1252
f 1248 1247 1242
f 1166 1253 1248
f 1168 1253 1166
f 1168 1170 1253
f 1249 1254 871
f 1253 1255 1248
f 1170 1255 1253
f 871 1254 1172
f 1249 1256 1254
f 1167 1257 1249
f 1243 1257 1167
f 1170 1258 1255
f 1176 1173 1259
f 1260 1176 1259
f 1172 1259 1173
f 1254 1261 1172
f 1261 1259 1172
f 1262 1261 1254
f 1256 1262 1254
f 1263 1249 1257
f 1264 1258 1265
f 1170 1175 1258
f 1175 1265 1258
f 1171 1175 1170
f 1259 1266 1260
f 1266 1267 1260
f 1249 1263 1256
f 1175 1268 1265
f 1176 1269 969
f 1176 1260 1269
f 1269 1260 1270
f 1267 1271 1260
f 1271 1270 1260
f 1266 1271 1267
f 1259 1272 1266
f 1261 1262 1259
f 1268 1264 1265
f 969 1269 970
f 1271 1273 1270
f 1273 1269 1270
f 1266 1273 1271
f 1262 1274 1259
f 1256 1274 1262
f 1175 1177 1268
f 1259 1274 1272
f 1272 1273 1266
f 1275 1268 1276
f 1177 1277 1268
f 1277 1276 1268
f 1269 1278 970
f 1278 1279 970
f 1280 1278 1269
f 1273 1280 1269
f 1274 1273 1272
f 1256 1281 1274
f 1281 1273 1274
f 1278 1280 1279
f 1281 1280 1273
f 1178 970 1279
f 1277 1282 1276
f 1279 1283 1178
f 1177 1180 1277
f 1280 1283 1279
f 1277 1180 1282
f 1180 1284 1282
f 1178 1283 1181
f 1281 1285 1280
f 1283 1286 1181
f 1285 1283 1280
f 1285 1287 1283
f 1287 1285 1281
f 1286 1288 1181
f 1287 1286 1283
f 1286 1289 1288
f 1181 1288 1184
f 1289 1184 1288
f 1287 1290 1286
f 1182 1185 1180
f 1290 1289 1286
f 1290 1291 1289
f 1289 1187 1184
f 1291 1187 1289
f 1185 1292 1180
f 1188 1292 1185
f 1188 1189 1292
f 1189 1293 1292
f 1189 1294 1293
f 1291 1295 1187
f 1296 1293 1294
f 1189 1190 1294
f 1088 1090 1190
f 1190 1090 1297
f 1192 980 1187
f 1298 1297 1090
f 1090 1196 1298
f 1196 1200 1298
f 1200 1299 1298
f 1200 1207 1299
f 1192 1300 1201
f 994 1301 1206
f 1302 1301 994
f 1301 1299 1206
f 1207 1206 1299
f 1201 1300 1203
f 1192 1303 1300
f 1304 1305 1306
f 1302 994 993
f 1306 1303 1192
f 1307 1211 1203
f 1300 1307 1203
f 1308 1307 1300
f 1303 1308 1300
f 1306 1309 1303
f 1310 1309 1306
f 1305 1310 1306
f 1311 1310 1305
f 1307 1217 1211
f 1224 1217 1307
f 1308 1224 1307
f 1310 1312 1309
f 1124 1313 1213
f 1214 1213 1314
f 1310 1315 1312
f 1305 1316 1311
f 1228 1316 1305
f 1317 1228 1305
f 1124 1317 1313
f 1303 1224 1308
f 1222 1217 1224
f 1223 1222 1224
f 1310 1311 1315
f 1316 1228 1311
f 1317 1124 1228
f 1225 1224 1303
f 1318 1225 1303
f 1309 1318 1303
f 1312 1318 1309
f 1315 1318 1312
f 1311 1318 1315
f 1228 1318 1311
f 1113 1225 1318
f 1228 1113 1318
f 1165 1076 1240
f 1319 1239 1238
f 1233 1234 1240
f 1234 1320 1240
f 1236 1245 1319
f 1237 1236 1319
f 1239 1319 1245
f 1246 1320 1234
f 1246 1241 1252
f 1321 1250 1322
f 1250 1237 1322
f 1323 1243 1321
f 1321 1243 1250
f 1257 1243 1323
f 1248 1255 1264
f 1255 1258 1264
f 1268 1324 1264
f 1325 1256 1263
f 1268 1275 1324
f 1281 1256 1325
f 1276 1282 1275
f 1284 1326 1282
f 1327 1284 1328
f 1180 1328 1284
f 1281 1329 1287
f 1287 1329 1290
f 1281 1330 1329
f 1330 1331 1329
f 1180 1292 1328
f 1290 1329 1291
f 1331 1332 1329
f 1292 1296 1328
f 1332 1333 1329
f 1333 1332 1331
f 1292 1293 1296
f 1329 1295 1291
f 1296 1294 1190
f 1333 1334 1329
f 1334 1295 1329
f 1296 1190 1328
f 1335 1328 1336
f 1334 1337 1295
f 1335 1336 1338
f 1328 1339 1336
f 1340 1339 1328
f 1190 1340 1328
f 1337 1341 1295
f 1338 1336 1342
f 1339 1342 1336
f 1341 1187 1295
f 1340 1342 1339
f 1190 1343 1340
f 1190 1297 1343
f 1297 1344 1343
f 1345 1187 1341
f 1345 1192 1187
f 1297 1346 1344
f 1298 1344 1346
f 1297 1298 1346
f 1345 1347 1192
f 1347 1348 1192
f 1298 1301 1344
f 1348 1349 1350
f 1348 1350 1192
f 1351 1192 1350
f 1352 1351 1350
f 1344 1301 1353
f 1298 1299 1301
f 1352 1354 1351
f 1354 1355 1351
f 1356 1355 1354
f 1304 1192 1351
f 1353 1302 1357
f 1301 1302 1353
f 1304 1306 1192
f 1357 1302 1358
f 1351 1359 1304
f 1355 1359 1351
f 1355 1360 1361
f 1359 1362 1304
f 1361 1359 1355
f 1363 1360 1317
f 1305 1304 1362
f 1214 1364 993
f 1302 993 1358
f 1359 1305 1362
f 1363 1359 1361
f 1317 1305 1359
f 1363 1317 1359
f 1365 1313 1317
f 1314 1313 1365
f 1214 1314 1364
f 1314 1213 1313
f 1366 1367 1368
f 1240 1369 1165
f 1369 1240 1370
f 1371 1367 1372
f 1366 1372 1367
f 1165 1368 1159
f 1370 1240 1320
f 1367 1371 1322
f 1238 1367 1319
f 1368 1367 1238
f 1159 1368 1238
f 1373 1369 1374
f 1369 1370 1374
f 1375 1374 1370
f 1320 1375 1370
f 1246 1376 1320
f 1377 1321 1322
f 1371 1377 1322
f 1319 1322 1237
f 1367 1322 1319
f 1374 1378 1373
f 1378 1374 1379
f 1374 1375 1379
f 1376 1380 1320
f 1246 1380 1376
f 1246 1252 1380
f 1375 1381 1379
f 1320 1382 1375
f 1382 1381 1375
f 1380 1382 1320
f 1252 1382 1380
f 1247 1248 1252
f 1248 1264 1382
f 1252 1248 1382
f 1264 1324 1382
f 1323 1383 1257
f 1383 1323 1321
f 1382 1384 1381
f 1324 1384 1382
f 1263 1257 1383
f 1325 1263 1383
f 1324 1275 1384
f 1385 1325 1383
f 1386 1384 1387
f 1275 1387 1384
f 1275 1388 1387
f 1275 1282 1388
f 1387 1389 1390
f 1387 1388 1389
f 1391 1389 1388
f 1282 1391 1388
f 1392 1393 1390
f 1389 1391 1390
f 1391 1392 1390
f 1394 1393 1392
f 1391 1394 1392
f 1391 1282 1326
f 1391 1326 1394
f 1326 1327 1394
f 1284 1327 1326
f 1395 1396 1394
f 1327 1328 1394
f 1328 1395 1394
f 1281 1397 1330
f 1395 1398 1396
f 1328 1398 1395
f 1331 1330 1397
f 1399 1396 1398
f 1328 1399 1398
f 1333 1331 1397
f 1399 1400 1396
f 1328 1335 1399
f 1335 1400 1399
f 1335 1401 1400
f 1401 1402 1400
f 1335 1338 1342
f 1335 1342 1401
f 1341 1337 1334
f 1342 1403 1401
f 1404 1402 1401
f 1342 1405 1403
f 1342 1340 1405
f 1404 1401 1406
f 1403 1406 1401
f 1403 1407 1406
f 1405 1407 1403
f 1343 1405 1340
f 1343 1344 1405
f 1408 1345 1341
f 1405 1344 1407
f 1408 1347 1345
f 1344 1409 1407
f 1408 1348 1347
f 1408 1410 1348
f 1410 1349 1348
f 1410 1350 1349
f 1411 1407 1409
f 1344 1353 1409
f 1410 1412 1350
f 1352 1350 1412
f 1412 1354 1352
f 1413 1411 1409
f 1414 1411 1413
f 1413 1409 1353
f 1412 1356 1354
f 1358 1414 1413
f 1353 1357 1413
f 1360 1355 1356
f 1414 1358 1415
f 1357 1358 1413
f 1358 1416 1415
f 1364 1415 1416
f 1360 1363 1361
f 1360 1365 1317
f 1417 1364 1314
f 1358 993 1416
f 1416 993 1364
f 1314 1365 1418
f 1419 1368 1165
f 1165 1369 1420
f 1371 1372 1421
f 1421 1372 1422
f 1366 1422 1372
f 1422 1366 1368
f 1369 1423 1420
f 1377 1371 1424
f 1421 1424 1371
f 1422 1425 1421
f 1425 1424 1421
f 1426 1423 1427
f 1423 1369 1427
f 1369 1373 1427
f 1428 1429 1425
f 1429 1424 1425
f 1427 1373 1430
f 1378 1379 1373
f 1321 1377 1431
f 1424 1432 1377
f 1433 1429 1428
f 1433 1432 1429
f 1432 1424 1429
f 1379 1381 1430
f 1373 1379 1430
f 1432 1431 1377
f 1434 1431 1432
f 1435 1432 1433
f 1434 1432 1435
f 1430 1381 1436
f 1434 1437 1431
f 1438 1434 1435
f 1437 1434 1438
f 1439 1440 1431
f 1439 1431 1437
f 1438 1439 1437
f 1381 1384 1436
f 1321 1431 1383
f 1441 1383 1431
f 1440 1441 1431
f 1439 1442 1440
f 1442 1441 1440
f 1443 1441 1442
f 1386 1444 1436
f 1384 1386 1436
f 1441 1385 1383
f 1445 1385 1441
f 1446 1445 1441
f 1443 1446 1441
f 1447 1446 1443
f 1448 1444 1449
f 1387 1449 1444
f 1386 1387 1444
f 1385 1450 1325
f 1445 1450 1385
f 1446 1450 1445
f 1447 1451 1446
f 1452 1453 1447
f 1454 1453 1452
f 1446 1451 1450
f 1387 1455 1449
f 1447 1453 1451
f 1455 1454 1449
f 1456 1457 1453
f 1456 1453 1454
f 1390 1455 1387
f 1450 1451 1281
f 1325 1450 1281
f 1455 1456 1454
f 1453 1457 1451
f 1455 1393 1456
f 1390 1393 1455
f 1451 1458 1281
f 1458 1451 1459
f 1460 1458 1459
f 1393 1461 1456
f 1394 1462 1393
f 1394 1396 1462
f 1396 1400 1462
f 1397 1281 1458
f 1397 1463 1333
f 1463 1397 1464
f 1463 1334 1333
f 1402 1465 1400
f 1341 1334 1466
f 1404 1406 1402
f 1408 1341 1467
f 1402 1406 1407
f 1468 1341 1466
f 1468 1467 1341
f 1467 1468 1408
f 1402 1407 1465
f 1469 1408 1468
f 1408 1469 1410
f 1470 1469 1468
f 1407 1411 1465
f 1469 1412 1410
f 1469 1471 1412
f 1356 1471 1469
f 1470 1356 1469
f 1472 1356 1470
f 1356 1412 1471
f 1465 1473 1474
f 1411 1414 1465
f 1473 1475 1476
f 1465 1475 1473
f 1414 1477 1465
f 1477 1475 1465
f 1472 1360 1356
f 1478 1360 1472
f 1475 1479 1476
f 1480 1479 1475
f 1477 1480 1475
f 1414 1481 1477
f 1480 1364 1479
f 1477 1364 1480
f 1481 1364 1477
f 1414 1415 1481
f 1478 1482 1360
f 1476 1364 1483
f 1479 1364 1476
f 1482 1365 1360
f 1418 1365 1482
f 1481 1415 1364
f 1417 1314 1418
f 1417 1483 1364
f 1484 1485 1486
f 1487 1488 1489
f 1487 1490 1488
f 1488 1490 1484
f 1485 1484 1419
f 1165 1485 1419
f 1485 1165 1486
f 1165 1420 1486
f 1489 1491 1487
f 1487 1491 1490
f 1368 1490 1422
f 1368 1419 1490
f 1419 1484 1490
f 1423 1492 1420
f 1423 1426 1492
f 1493 1494 1491
f 1422 1490 1425
f 1495 1496 1497
f 1495 1492 1496
f 1492 1426 1496
f 1493 1498 1494
f 1490 1491 1428
f 1425 1490 1428
f 1497 1496 1499
f 1426 1427 1496
f 1500 1501 1498
f 1494 1498 1502
f 1502 1498 1501
f 1428 1494 1433
f 1428 1491 1494
f 1503 1499 1496
f 1427 1436 1496
f 1436 1503 1496
f 1427 1430 1436
f 1504 1501 1500
f 1502 1501 1505
f 1505 1501 1504
f 1494 1502 1506
f 1506 1502 1505
f 1433 1506 1435
f 1494 1506 1433
f 1504 1500 1507
f 1505 1504 1507
f 1508 1505 1507
f 1508 1509 1505
f 1505 1509 1506
f 1435 1509 1438
f 1506 1509 1435
f 1510 1503 1444
f 1509 1508 1511
f 1442 1438 1512
f 1442 1439 1438
f 1512 1438 1511
f 1509 1511 1438
f 1512 1513 1514
f 1511 1513 1512
f 1436 1444 1503
f 1512 1443 1442
f 1514 1443 1512
f 1443 1514 1447
f 1514 1515 1447
f 1447 1515 1452
f 1452 1515 1516
f 1510 1444 1517
f 1517 1452 1516
f 1517 1454 1452
f 1448 1454 1517
f 1444 1448 1517
f 1448 1449 1454
f 1518 1459 1451
f 1518 1451 1457
f 1518 1519 1459
f 1519 1460 1459
f 1518 1460 1519
f 1457 1460 1518
f 1457 1520 1460
f 1461 1457 1456
f 1458 1460 1521
f 1520 1521 1460
f 1461 1520 1457
f 1393 1462 1461
f 1461 1521 1520
f 1461 1522 1521
f 1462 1522 1461
f 1522 1523 1521
f 1524 1523 1522
f 1462 1524 1522
f 1525 1524 1462
f 1400 1525 1462
f 1521 1464 1458
f 1524 1525 1523
f 1523 1526 1521
f 1525 1526 1523
f 1400 1526 1525
f 1397 1458 1464
f 1521 1526 1527
f 1400 1528 1526
f 1521 1529 1464
f 1529 1530 1464
f 1527 1529 1521
f 1530 1463 1464
f 1527 1526 1529
f 1529 1531 1530
f 1530 1532 1463
f 1531 1532 1530
f 1334 1463 1533
f 1534 1533 1463
f 1400 1465 1528
f 1334 1535 1466
f 1533 1535 1334
f 1533 1536 1535
f 1536 1466 1535
f 1528 1465 1537
f 1466 1470 1468
f 1536 1470 1466
f 1537 1538 1528
f 1539 1538 1540
f 1536 1541 1470
f 1542 1541 1536
f 1465 1474 1537
f 1541 1543 1470
f 1542 1543 1541
f 1537 1544 1538
f 1545 1544 1537
f 1474 1545 1537
f 1543 1472 1470
f 1542 1472 1543
f 1544 1546 1538
f 1473 1544 1545
f 1478 1472 1542
f 1540 1478 1542
f 1547 1548 1538
f 1538 1546 1547
f 1546 1548 1547
f 1548 1478 1540
f 1538 1548 1540
f 1544 1549 1546
f 1474 1473 1545
f 1548 1417 1478
f 1546 1550 1548
f 1549 1550 1546
f 1473 1549 1544
f 1418 1482 1478
f 1550 1417 1548
f 1549 1551 1550
f 1551 1417 1550
f 1476 1549 1473
f 1417 1418 1478
f 1483 1551 1549
f 1476 1483 1549
f 1483 1417 1551
f 1484 1486 1552
f 1553 1484 1552
f 1488 1554 1489
f 1488 1484 1555
f 1555 1484 1556
f 1553 1556 1484
f 1552 1557 1553
f 1557 1556 1553
f 1486 1557 1552
f 1486 1420 1492
f 1557 1486 1492
f 1491 1489 1554
f 1491 1554 1558
f 1488 1558 1554
f 1555 1558 1488
f 1557 1559 1556
f 1559 1560 1556
f 1561 1559 1557
f 1492 1562 1557
f 1562 1561 1557
f 1493 1491 1563
f 1563 1491 1564
f 1558 1565 1491
f 1565 1564 1491
f 1566 1565 1558
f 1555 1566 1558
f 1560 1555 1556
f 1561 1567 1559
f 1562 1568 1561
f 1568 1567 1561
f 1569 1568 1562
f 1492 1570 1562
f 1570 1569 1562
f 1492 1495 1570
f 1493 1563 1571
f 1564 1572 1563
f 1572 1571 1563
f 1565 1573 1564
f 1573 1572 1564
f 1566 1573 1565
f 1555 1574 1566
f 1560 1575 1555
f 1559 1575 1560
f 1568 1576 1567
f 1569 1577 1568
f 1570 1577 1569
f 1495 1499 1570
f 1497 1499 1495
f 1498 1493 1500
f 1571 1500 1493
f 1573 1571 1572
f 1566 1578 1573
f 1578 1571 1573
f 1574 1578 1566
f 1575 1574 1555
f 1567 1575 1559
f 1568 1516 1576
f 1577 1516 1568
f 1571 1579 1500
f 1580 1579 1571
f 1578 1580 1571
f 1574 1581 1578
f 1575 1581 1574
f 1567 1582 1575
f 1576 1582 1567
f 1516 1582 1576
f 1570 1517 1577
f 1499 1503 1570
f 1503 1517 1570
f 1508 1507 1500
f 1579 1508 1500
f 1578 1513 1580
f 1513 1579 1580
f 1581 1513 1578
f 1582 1515 1575
f 1577 1517 1516
f 1503 1510 1517
f 1508 1579 1511
f 1513 1511 1579
f 1514 1513 1581
f 1583 1514 1581
f 1575 1583 1581
f 1515 1583 1575
f 1515 1514 1583
f 1582 1516 1515
f 1529 1584 1531
f 1529 1526 1584
f 1584 1585 1531
f 1526 1585 1584
f 1586 1585 1526
f 1587 1463 1532
f 1531 1588 1532
f 1585 1588 1531
f 1528 1586 1526
f 1587 1534 1463
f 1528 1585 1586
f 1585 1528 1588
f 1532 1588 1587
f 1588 1534 1587
f 1588 1589 1534
f 1533 1534 1536
f 1539 1536 1534
f 1589 1539 1534
f 1538 1589 1588
f 1588 1528 1538
f 1539 1542 1536
f 1589 1538 1539
f 1539 1540 1542
